{
 "SRI.OPCION.LENGUA_ESPANIOL": "Espa&#241;ol",
 "SRI.OPCION.LENGUA_INGLES": "Ingl&#233;s",
 "SRI.OPCION.LENGUA_QUICHUA": "Quichua",
 "SRI.TOOLTIP.CERRAR_SESSION":"Cerrar Sessi&#243;n",
 "SRI.TOOLTIP.PERFIL_USUARIO":"Perfil de Usuario",
 "SRI.TOOLTIP.NOTIFICACIONES":"Notificaciones",
 "SRI.TOOLTIP.IDIOMA":"Idioma",
 "SRI.TOOLTIP.MOSTRAR_MENU":"Mostrar/Ocultar Men&#250;",
 "SRI.TOOLTIP.BUSCAR_MENU":"Ingrese texto para buscar Men&#250;",
 "SRI.MASCARA.BUSCAR":"Buscar",
 
 "SRI.404.TITULO":"ERROR",
 "SRI.404.SUBTITULO":"404",
 "SRI.404.MENSAJE":"Lo sentimos, la p&#225;gina no fue encontrada",
 "SRI.403.TITULO":"ERROR",
 "SRI.403.SUBTITULO":"403",
 "SRI.403.MENSAJE":"Acceso denegado",
 "SRI.500.TITULO":"ERROR",
 "SRI.500.SUBTITULO":"500",
 "SRI.500.MENSAJE":"Problemas con el servidor, por favor comuniquese con el administrador",
 
 
 "SRI.LOGIN.ETIQUETA.RUC":"RUC / CI",
 "SRI.LOGIN.TOOLTIP.RUC":"Ingrese el RUC o CI",
 "SRI.LOGIN.ETIQUETA.ID_ADICIONAL":"ID adicional",
 "SRI.LOGIN.MASCARA.ID_ADICIONAL":" En caso de requerir",
 "SRI.LOGIN.ETIQUETA.CLAVE":"Contraseña",
 "SRI.LOGIN.MASCARA.CLAVE":"Contraseña",
 "SRI.LOGIN.BOTON.INICIAR_SESSION":"Iniciar Sessi&#243;n",
 "SRI.LOGIN.BOTON.RECUPERAR":"Recuperar",
 "SRI.LOGIN.BOTON.RECUPERAR_CLAVE":"Clave",
 "SRI.LOGIN.ETIQUETA.NAVEGADORES":"Internet Explorer 9.0, Chrome 36.0.1, Firefox 31.0",
 "SRI.LOGIN.ETIQUETA.DERECHOS":"© Copyright 2015 Servicio de Rentas Internas. ",
 "SRI.LOGIN.ETIQUETA.RESOLUCION_OPTIMA":"Resolucion Óptima: 1280x1024 ",
 "SRI.CONF_CUENTA.TITULO.PERFIL":"Perfil de Usuario",
 "SRI.CONF_CUENTA.TITULO.FAVORITOS":"Favoritos",
 "SRI.GENERAL.CAMPOS_OBLIGATORIOS":"Los campos marcados con (*) son obligatorios.",
   "SRI.OPCION.SELECCIONAR" :"Seleccione ...",
  "SRI.BOTON.GUARDAR":"Guardar",
  "SRI.BOTON.BUSCAR" :"Buscar",
  "SRI.BOTON.CANCELAR" :"Cancelar",
  "SRI.ALERTA.EXITO" :"Mensaje de éxito"
}