 [ 
        	{"nombre":"Comprobantes Electr\u00f3nicos","url":"sri-web.home","icono":"icon-comprobantes","id":3
             ,"ngclass": "{active: collapseVar==3}",
                "subItems": [
                    {"nombre": "Consulta de comprobantes electr\u00f3nicos recibidos","url":"sri-web.moduloComprobantesElectronicos"},
                    {"nombre": "Consulta de comprobantes electr\u00f3nicos autorizados","url":"sri-web.ceProduccion"},
                    {"nombre": "Pruebas","url":"sri-web.cePruebas"}
                ]

        }, 						
            {"nombre":"Matriculaci\u00f3n Vehicular","url":"sri-web.home","icono":"icon-matriculacion","id":4
             ,"ngclass": "{active: collapseVar==4}",
                "subItems": [
                    {"nombre": "Consulta de veh\u00edculos","url":"ce.produccion"},
                    {"nombre": "Exoneraciones","url":"ce.produccion"}
                ]

        },
            {"nombre":"Declaraci\u00f3n de Impuestos","url":"sri-web.home","icono":"icon-declaraciones","id":5
             ,"ngclass": "{active: collapseVar==5}",
                "subItems": [
                    {"nombre": "101 - Renta sociedades","url":"ce.produccion"},
                    {"nombre": "102 - Renta personas naturales","url":"sri-web.home"},
                    {"nombre": "103 - Retenciones en la fuente","url":"ce.produccion"},
                    {"nombre": "104 - IVA semestral","url":"ce.produccion"},
                    {"nombre": "104 - IVA mensual","url":"sri-web.declaracionIvaMensual"},
                    {"nombre": "105 - Consumos especiales","url":"ce.produccion"},
                    {"nombre": "106 - M\u00faltiples pagos","url":"ce.produccion"},
                    {"nombre": "108 - Renta sobre herencias, legados y donaciones","url":"ce.produccion"},
                    {"nombre": "109 - Salida de divisas","url":"ce.produccion"},
                    {"nombre": "110 - Activos en el exterior","url":"ce.produccion"},
                    {"nombre": "113 - Regalias a la actividad minera","url":"ce.produccion"},
                    {"nombre": "114 - Botellas pl\u00e1sticas no retornables","url":"ce.produccion"},                    
                    {"nombre": "115 - Anticipo de Impuesto a la Renta","url":"ce.produccion"},
                    {"nombre": "116 - Anticipo de Impuesto a la Renta espect\u00e1culos p\u00fablicos","url":"ce.produccion"},
                    {"nombre": "117 - Patentes de conservaci\u00f3n minera Salida de divisas","url":"ce.produccion"},
                    {"nombre": "Formulario ISD ordenante","url":"ce.produccion"},
                    {"nombre": "ISD Agentes de retenci\u00f3n","url":"ce.produccion"},
                    {"nombre": "Consulta 104 - IVA mensual","url":"sri-web.consultaDeclaracionIvaMensual"}
                ]
        },
            {"nombre":"Anexos","url":"sri-web.home","icono":"icon-anexos","id":6
             ,"ngclass": "{active: collapseVar==6}",
                "subItems": [
                    {"nombre": "ATS - Anexo Transaccional Simplificado","url":"ce.produccion"},
                    {"nombre": "REOC - Retenciones en la fuente de Impuesto a la Renta por otros conceptos","url":"ce.produccion"},
                    {"nombre": "RDEP - Retenciones en la fuente bajo relaci\u00f3n de dependencia","url":"ce.produccion"},
                    {"nombre": "ROTEF - Reporte de operaciones y transacciones econ\u00f3micas financieras","url":"ce.produccion"}
                ]

        },
            {"nombre":"Devoluciones","url":"sri-web.home","icono":"icon-devoluciones","id":7
             ,"ngclass": "{active: collapseVar==7}",
            "subItems": [
                    {"nombre": "Tercera edad","url":"ce.produccion"},
                    {"nombre": "Impuesto a la renta","url":"ce.produccion"},
                    {"nombre": "IVA  Sector p\u00fablico","url":"ce.produccion"},
                    {"nombre": "Pre-validaci\u00f3n","url":"ce.produccion"}
                ]
            },
            {"nombre":"Sistema nacional de venta de alcohol","url":"sri-web.home","icono":"icon-simar","id":8
              ,"ngclass": "{active: collapseVar==8}",
            "subItems": [
                    {"nombre": "Productores e importadores","url":"ce.produccion"}
                ]
            },
            {"nombre":"Notas de cr\u00e9dito","url":"sri-web.home","icono":"icon-notas-credito","id":9
             ,"ngclass": "{active: collapseVar==8}",
            "subItems": [
                    {"nombre": "Endoso","url":"ce.produccion"},
                    {"nombre": "Desmaterializada","url":"sri-web.moduloAdminParametros"}
                ]
            },            
            {"nombre":"Pruebas De Concepto","url":"sri-web.home","icono":"fa fa-laptop fa-fw","id":13,
             "ngclass": "{active: collapseVar==13}",
                "subItems": [
                	{"nombre": "Prueba-Componentes","url":"sri-web.componentes"},
                	{"nombre": "Prueba-Iconos","url":"sri-web.iconos"},
                    {"nombre": "Prueba-Forms","url":"sri-web.table"},
                    {"nombre": "Prueba-Externo","url":"sri-web.externo"}                 
                ]
            }
    ]