 [ 
        	{"notificacion":"Nueva declaracion receptada_1","url":"sri-web.notificaciones","id":3, "mes":"Abril", "anio":"2015"
             ,"ngclass": "{active: collapseVar==3}"
        	}, 						
            {"notificacion":"Nueva declaracion receptada_2","url":"sri-web.notificaciones","id":4, "mes":"Mayo", "anio":"2015"
             ,"ngclass": "{active: collapseVar==4}"
        	},
            {"notificacion":"Nueva declaracion receptada_3","url":"sri-web.notificaciones","id":5, "mes":"Junio", "anio":"2015"
             ,"ngclass": "{active: collapseVar==5}"
       	 	},
            {"notificacion":"Nueva declaracion receptada_4","url":"sri-web.notificaciones","id":6, "mes":"Julio", "anio":"2015"
             ,"ngclass": "{active: collapseVar==6}"
        	},
            {"notificacion":"Nueva declaracion receptada_5","url":"sri-web.notificaciones","id":7, "mes":"Agosto", "anio":"2015"
             ,"ngclass": "{active: collapseVar==7}"
            },
            {"notificacion":"Nueva declaracion receptada_6","url":"sri-web.notificaciones","id":8, "mes":"Septiembre", "anio":"2015"
              ,"ngclass": "{active: collapseVar==8}"
            },
            {"notificacion":"Nueva declaracion receptada_7","url":"sri-web.notificaciones","id":9, "mes":"Octubre", "anio":"2015"
             ,"ngclass": "{active: collapseVar==8}"
            },            
            {"notificacion":"Nueva declaracion receptada_8","url":"sri-web.notificaciones","id":10, "mes":"Noviembre", "anio":"2015"
             ,"ngclass": "{active: collapseVar==10}"
            }
    ]	