{
  "name": "sri",
  "css_prefix_text": "sri-icon",
  "css_use_suffix": false,
  "hinting": true,
  "units_per_em": 1000,
  "ascent": 850,
  "glyphs": [
    {
      "uid": "ea97e9c1ba4865199a0cf5f4370b2f0d",
      "css": "devoluciones",
      "code": 59392,
      "src": "custom_icons",
      "selected": true,
      "svg": {
        "path": "M1496.7 666.4H1428.5V327.7C1471.9 326.2 1499.8 325.4 1511.9 325.4 1559.2 325.4 1596.7 339.8 1624.3 368.5 1651.8 397.3 1665.6 435.6 1665.6 483.3 1665.7 605.4 1609.3 666.4 1496.7 666.4ZM1474.7 369.3V622.5C1485.1 624 1497.8 624.7 1513.1 624.7 1545.4 624.7 1570.9 612.6 1589.3 588.3 1607.8 564.1 1617.1 530.3 1617.1 487.2 1617.1 407.1 1581.1 367 1509.2 367 1504.8 367 1493.3 367.8 1474.7 369.3ZM1909.7 546.9H1731.2C1731.2 575.8 1739.2 598.1 1755 613.7 1769.1 627.2 1787.1 634 1809.1 634 1834.3 634 1855.2 626.7 1872 612.1L1890.5 643.7C1883.7 650.5 1873.3 656.3 1859.3 661.3 1841.7 667.8 1822.2 671 1800.6 671 1769.5 671 1743 660.4 1721.3 639.3 1697.1 616 1685 584.8 1685 545.5 1685 504.6 1697.4 471.9 1722.2 447.2 1744.4 425.2 1770.7 414.2 1801 414.2 1836.3 414.2 1864 424.1 1884 444 1903.5 463.1 1913.2 488.5 1913.2 520 1913.2 529.8 1912 538.7 1909.7 546.9ZM1803.1 451.2C1783.6 451.2 1767.1 457.5 1753.9 470.1 1741.2 482.1 1734.1 497.1 1732.4 514.9H1869.5C1869.5 497.2 1863.9 482.4 1852.8 470.6 1840.6 457.7 1824.1 451.2 1803.1 451.2ZM2034.4 671H2022.9L1916.7 418.1H1964.8L2030.2 591.5 2097.1 418.1H2143.1L2034.4 671ZM2146.7 542C2146.7 503.8 2156.9 472.9 2177.5 449.4 2198.1 426 2225.2 414.2 2258.8 414.2 2294.2 414.2 2321.7 425.5 2341.3 448 2360.9 470.6 2370.7 502 2370.7 542 2370.7 581.9 2360.7 613.4 2340.6 636.5 2320.6 659.5 2293.3 671 2258.8 671 2223.5 671 2196 659.4 2176.3 636.1 2156.5 612.9 2146.7 581.5 2146.7 542ZM2192.9 542C2192.9 604.1 2214.9 635.2 2258.8 635.2 2279.3 635.2 2295.3 626.9 2307 610.2 2318.6 593.6 2324.4 570.9 2324.4 542 2324.4 480.7 2302.5 450 2258.8 450 2238.7 450 2222.7 458.2 2210.8 474.5 2198.9 490.8 2192.9 513.4 2192.9 542ZM2406.2 596.3V317.3H2450.1V588.9C2450.1 602.2 2453.9 612.6 2461.5 620.2 2469.2 627.9 2479.1 631.7 2491.4 631.7V671C2434.6 671 2406.2 646.1 2406.2 596.3ZM2569.7 418.8V576.7C2569.7 614.9 2586.3 634 2619.4 634 2633.9 634 2647.2 629.9 2659.2 621.6S2679.1 603.6 2683 592.7V418.8H2726.9V666.4H2683V632.2C2678.1 641.9 2668.1 650.8 2653.3 658.9S2623.9 671.1 2609.7 671.1C2582.6 671.1 2561.8 663.3 2547.4 647.7 2533 632.2 2525.8 610 2525.8 581.4V418.8H2569.7ZM2959.4 438.9L2937.6 469.9C2933.2 465.5 2925.3 461.2 2913.9 457.2 2902.6 453.2 2891.5 451.2 2880.5 451.2 2856.7 451.2 2837.7 459.5 2823.6 476.3S2802.6 516 2802.6 545.1C2802.6 574 2809.8 596.1 2824.1 611.3 2838.5 626.4 2858.3 634 2883.7 634 2903.5 634 2923.4 626.4 2943.4 611.2L2960.7 648.1C2937.2 663.3 2908 671 2873.1 671 2839.4 671 2811.5 659.7 2789.5 637 2767.4 614.4 2756.4 583.7 2756.4 545.1 2756.4 505.6 2767.9 473.9 2790.7 450 2813.6 426.2 2844.9 414.2 2884.7 414.2 2897.5 414.2 2911.4 416.9 2926.3 422.3 2941.2 427.7 2952.3 433.2 2959.4 438.9ZM3014 666.4V455.8H2980.1V418.8H3058V666.4H3014ZM3038 325.2C3045.6 325.2 3052 327.8 3057.4 333.1S3065.3 344.8 3065.3 352.2C3065.3 359.8 3062.7 366.2 3057.4 371.5S3045.6 379.5 3038 379.5C3030.7 379.5 3024.3 376.8 3019 371.5S3011 359.8 3011 352.2 3013.6 338.3 3018.9 333C3024.1 327.8 3030.5 325.2 3038 325.2ZM3097.4 542C3097.4 503.8 3107.7 472.9 3128.3 449.4 3148.8 426 3175.9 414.2 3209.5 414.2 3244.9 414.2 3272.5 425.5 3292.1 448 3311.6 470.6 3321.4 502 3321.4 542 3321.4 581.9 3311.4 613.4 3291.4 636.5 3271.3 659.5 3244.1 671 3209.5 671 3174.2 671 3146.7 659.4 3127 636.1 3107.2 612.9 3097.4 581.5 3097.4 542ZM3143.6 542C3143.6 604.1 3165.6 635.2 3209.5 635.2 3230 635.2 3246 626.9 3257.7 610.2 3269.3 593.6 3275.1 570.9 3275.1 542 3275.1 480.7 3253.2 450 3209.5 450 3189.4 450 3173.4 458.2 3161.5 474.5 3149.6 490.8 3143.6 513.4 3143.6 542ZM3505.8 666.4V522.4C3505.8 496 3501.8 477.6 3493.9 467 3485.9 456.4 3472.6 451.2 3454 451.2 3444 451.2 3433.5 454.2 3422.6 460.2 3411.6 466.2 3403.2 473.6 3397.3 482.4V666.4H3353.4V418.8H3383.5L3397.3 450.7C3411.8 426.4 3435.5 414.2 3468.3 414.2 3522.5 414.2 3549.7 447.1 3549.7 513.1V666.4H3505.8ZM3806.4 546.9H3627.9C3627.9 575.8 3635.9 598.1 3651.8 613.7 3665.8 627.2 3683.8 634 3705.9 634 3731 634 3751.9 626.7 3768.7 612.1L3787.2 643.7C3780.4 650.5 3770 656.3 3756 661.3 3738.4 667.8 3718.9 671 3697.3 671 3666.2 671 3639.8 660.4 3618 639.3 3593.8 616 3581.7 584.8 3581.7 545.5 3581.7 504.6 3594.1 471.9 3619 447.2 3641.2 425.2 3667.4 414.2 3697.8 414.2 3733.1 414.2 3760.7 424.1 3780.7 444 3800.2 463.1 3809.9 488.5 3809.9 520 3809.8 529.8 3808.7 538.7 3806.4 546.9ZM3699.8 451.2C3680.3 451.2 3663.8 457.5 3650.6 470.1 3637.9 482.1 3630.8 497.1 3629.1 514.9H3766.1C3766.1 497.2 3760.6 482.4 3749.5 470.6 3737.3 457.7 3720.8 451.2 3699.8 451.2ZM3825.7 651.6L3841.2 610C3865.7 626 3885.4 634 3900.4 634 3927.5 634 3941.1 622.6 3941.1 599.8 3941.1 583.5 3928 569.5 3901.7 557.7 3881.6 548.5 3868 541.5 3861 536.7 3853.9 531.9 3847.9 526.5 3842.7 520.4 3837.6 514.3 3833.7 507.9 3831.1 501 3828.6 494.1 3827.3 486.8 3827.3 478.9 3827.3 458.6 3834.7 442.7 3849.6 431.3 3864.3 419.9 3883.6 414.2 3907.6 414.2 3925.6 414.2 3948.3 419.9 3975.8 431.3L3963.3 472C3945.9 458.1 3928.4 451.2 3910.8 451.2 3900.3 451.2 3891.5 453.6 3884.3 458.6 3877.2 463.5 3873.6 469.7 3873.6 477.3 3873.6 493.2 3882.6 505.2 3900.6 513.4L3932 527.7C3951.3 536.5 3965.3 546.5 3974.1 557.7 3982.9 568.9 3987.3 583.1 3987.3 600 3987.3 622.2 3979.5 639.6 3963.9 652.1 3948.4 664.7 3926.8 671 3899.2 671 3873.2 671 3848.7 664.5 3825.7 651.6ZM726.2 975.2V964.4C726.2 950.6 715.1 939.6 701.4 939.6H24.9C11.1 939.6 0 950.6 0 964.4V975.2C0 988.9 11.1 1000 24.9 1000H701.4C715.1 1000 726.2 988.9 726.2 975.2ZM726.2 891.1V880.4C726.2 866.7 715.1 855.5 701.4 855.5H24.9C11.1 855.5 0 866.7 0 880.4V891.1C0 904.9 11.1 916 24.9 916H701.4C715.1 916 726.2 904.9 726.2 891.1ZM726.2 807.1V796.3C726.2 782.6 715.1 771.5 701.4 771.5H24.9C11.1 771.5 0 782.6 0 796.3V807.1C0 820.8 11.1 832 24.9 832H701.4C715.1 832 726.2 820.8 726.2 807.1ZM352.2 0H406.2V63.3C437.9 69.4 465.2 78.8 488.5 91.7 511.7 104.6 535.8 124.4 560.9 151.2L484.3 204.4C461.2 184 435.2 168.4 406.3 157.7V294.5C439.1 303 465 312.7 483.9 323.3 514.8 340.6 538.7 362.1 555.6 387.9 572.5 413.7 580.9 443.1 580.9 476.2 580.9 502 575.5 526.2 564.7 549 553.9 571.7 539 590.2 520 604.6 501 618.9 480.6 629.4 458.8 636 447.1 639.3 429.6 641.9 406.2 643.6V741.7H352.2V643.6C322.5 639.9 297.1 633.8 276 625.1 254.8 616.5 234.8 604 215.8 587.7 201.4 575.6 185.5 557.1 168 532.3L247.1 477.2C278 520.3 313.1 545.5 352.2 552.8V394.8C311.3 385.6 278.4 372.1 253.2 354.5 228 336.9 209.9 316.2 198.7 292.3 187.5 268.5 181.9 244.9 181.9 221.5 181.9 201.6 186.7 181.4 196.3 160.8 205.9 140.3 219.5 122.7 237.3 108.1 255 93.5 274.5 82.6 295.7 75.3 308.1 70.9 326.9 66.9 352.2 63.2V0ZM352.2 282.1V152.6C324.5 157.2 304.5 165.6 292.2 177.6 279.9 189.6 273.8 203.2 273.8 218.3 273.8 231.9 278.7 243.7 288.5 253.8 298.4 264 319.6 273.4 352.2 282.1ZM406.2 407.2V555.2C432.4 551.6 452 543 464.9 529.5S484.2 500.2 484.2 482C484.2 466.2 478.5 451.9 467.1 439.1 455.7 426.4 435.4 415.7 406.2 407.2Z",
        "width": 4002
      },
      "search": [
        "devoluciones"
      ]
    },
    {
      "uid": "d4ff3597b5cdb2598e2df21983224c01",
      "css": "declaracion",
      "code": 59393,
      "src": "custom_icons",
      "selected": true,
      "svg": {
        "path": "M1778.6 404.2H1710.7V67C1754 65.4 1781.7 64.7 1793.8 64.7 1840.9 64.7 1878.2 79 1905.7 107.6 1933.1 136.2 1946.9 174.3 1946.9 221.9 1946.9 343.4 1890.8 404.2 1778.6 404.2ZM1756.8 108.4V360.5C1767.1 362 1779.8 362.7 1795 362.7 1827.2 362.7 1852.5 350.6 1870.9 326.5 1889.3 302.3 1898.5 268.7 1898.5 225.8 1898.5 146 1862.7 106.1 1791.1 106.1 1786.7 106.1 1775.3 106.9 1756.8 108.4ZM2189.8 285.2H2012.2C2012.2 314 2020.1 336.2 2035.9 351.7 2049.8 365.2 2067.8 371.9 2089.7 371.9 2114.7 371.9 2135.6 364.7 2152.3 350.1L2170.7 381.6C2164 388.3 2153.6 394.2 2139.7 399.1 2122.2 405.6 2102.7 408.8 2081.2 408.8 2050.2 408.8 2023.9 398.3 2002.3 377.2 1978.2 354.1 1966.2 323 1966.2 283.8 1966.2 243.2 1978.5 210.6 2003.2 186 2025.3 164 2051.4 153.1 2081.7 153.1 2116.8 153.1 2144.3 163 2164.3 182.8 2183.7 201.8 2193.3 227 2193.3 258.5 2193.3 268.2 2192.2 277 2189.8 285.2ZM2083.7 189.9C2064.3 189.9 2047.9 196.2 2034.7 208.8 2022.1 220.7 2015 235.6 2013.3 253.4H2149.8C2149.8 235.8 2144.3 221 2133.2 209.2 2121.1 196.4 2104.6 189.9 2083.7 189.9ZM2411.1 177.7L2389.5 208.5C2385 204.1 2377.2 199.9 2365.9 195.9 2354.6 191.9 2343.5 189.9 2332.7 189.9 2308.9 189.9 2290 198.2 2276 214.9S2255.1 254.3 2255.1 283.3C2255.1 312.2 2262.2 334.2 2276.5 349.3 2290.8 364.4 2310.6 371.9 2335.9 371.9 2355.5 371.9 2375.3 364.3 2395.3 349.2L2412.5 386C2389 401.1 2360 408.8 2325.3 408.8 2291.7 408.8 2263.9 397.5 2242 374.9 2220.1 352.4 2209.1 321.8 2209.1 283.3 2209.1 244.1 2220.5 212.5 2243.3 188.7 2266 165 2297.2 153.1 2336.8 153.1 2349.5 153.1 2363.4 155.8 2378.2 161.1 2393.1 166.5 2404.1 172 2411.1 177.7ZM2447.9 334.4V56.7H2491.6V327.1C2491.6 340.3 2495.4 350.7 2503 358.2 2510.6 365.9 2520.5 369.6 2532.8 369.6V408.8C2476.2 408.8 2447.9 384 2447.9 334.4ZM2708.5 375.9C2691 397.8 2664.3 408.8 2628.2 408.8 2608.9 408.8 2592.1 401.7 2577.9 387.7S2556.6 356.2 2556.6 335.3C2556.6 310.3 2567.6 289.2 2589.4 272 2611.3 254.7 2639.2 246.1 2673.1 246.1 2682.3 246.1 2692.7 248.1 2704.4 252 2704.4 212.1 2686.6 192.2 2651 192.2 2623.7 192.2 2602.7 199.6 2587.9 214.3L2569.5 177.7C2577.8 171 2589.3 165.2 2604 160.4 2618.6 155.5 2632.6 153.1 2645.9 153.1 2681.7 153.1 2707.7 161.2 2723.9 177.5S2748.1 219.6 2748.1 255V343.4C2748.1 365.1 2754.6 379.5 2767.5 386.7V408.6C2749.7 408.6 2736.4 406.1 2727.6 401 2718.7 395.9 2712.3 387.5 2708.5 375.9ZM2704.4 283.1C2690.6 280 2680.9 278.5 2675.4 278.5 2653.3 278.5 2635.3 284.2 2621.3 295.5 2607.4 306.9 2600.4 320.3 2600.4 335.8 2600.4 361.4 2615.5 374.2 2645.7 374.2 2667.8 374.2 2687.4 363.7 2704.4 342.7V283.1ZM2936.7 199.8C2927.2 193.2 2917.6 189.9 2908 189.9 2892.5 189.9 2878.9 197 2867.3 211.3 2855.7 225.6 2850 242.7 2850 262.8V404.2H2806.2V157.7H2850V197C2865.9 167.7 2889.6 153.1 2921.1 153.1 2928.9 153.1 2940.2 154.4 2954.9 157.2L2936.7 199.8ZM3111.1 375.9C3093.6 397.8 3066.8 408.8 3030.8 408.8 3011.4 408.8 2994.6 401.7 2980.5 387.7S2959.2 356.2 2959.2 335.3C2959.2 310.3 2970.1 289.2 2992 272 3013.8 254.7 3041.7 246.1 3075.6 246.1 3084.8 246.1 3095.2 248.1 3106.9 252 3106.9 212.1 3089.1 192.2 3053.5 192.2 3026.2 192.2 3005.2 199.6 2990.4 214.3L2972 177.7C2980.3 171 2991.8 165.2 3006.5 160.4 3021.1 155.5 3035.1 153.1 3048.4 153.1 3084.2 153.1 3110.2 161.2 3126.4 177.5S3150.7 219.6 3150.7 255V343.4C3150.7 365.1 3157.1 379.5 3170 386.7V408.6C3152.2 408.6 3138.9 406.1 3130.1 401 3121.2 395.9 3114.9 387.5 3111.1 375.9ZM3106.9 283.1C3093.1 280 3083.5 278.5 3077.9 278.5 3055.8 278.5 3037.8 284.2 3023.9 295.5 3009.9 306.9 3002.9 320.3 3002.9 335.8 3002.9 361.4 3018.1 374.2 3048.2 374.2 3070.4 374.2 3089.9 363.7 3106.9 342.7V283.1ZM3391.3 177.7L3369.7 208.5C3365.2 204.1 3357.4 199.9 3346.1 195.9 3334.8 191.9 3323.7 189.9 3312.8 189.9 3289.1 189.9 3270.2 198.2 3256.2 214.9S3235.3 254.4 3235.3 283.3C3235.3 312.2 3242.4 334.2 3256.7 349.3 3271 364.4 3290.7 371.9 3316 371.9 3335.7 371.9 3355.5 364.3 3375.4 349.2L3392.7 386C3369.2 401.1 3340.2 408.8 3305.5 408.8 3271.9 408.8 3244.1 397.5 3222.2 374.9 3200.2 352.4 3189.3 321.8 3189.3 283.3 3189.3 244.1 3200.7 212.5 3223.4 188.7 3246.2 165 3277.4 153.1 3317 153.1 3329.7 153.1 3343.6 155.8 3358.4 161.1 3373.3 166.5 3384.2 172 3391.3 177.7ZM3445.7 404.2V194.5H3411.9V157.7H3489.5V404.2H3445.7ZM3469.7 64.5C3477.2 64.5 3483.6 67.1 3488.9 72.4S3496.9 84 3496.9 91.4C3496.9 98.9 3494.2 105.3 3488.9 110.6S3477.2 118.5 3469.7 118.5C3462.3 118.5 3456 115.9 3450.7 110.6S3442.8 98.9 3442.8 91.4 3445.4 77.5 3450.6 72.3C3455.8 67.1 3462.2 64.5 3469.7 64.5ZM3528.7 280.3C3528.7 242.3 3539 211.6 3559.5 188.1 3580 164.8 3606.9 153.1 3640.4 153.1 3675.6 153.1 3703 164.3 3722.6 186.8 3742 209.2 3751.8 240.5 3751.8 280.3 3751.8 320.1 3741.8 351.4 3721.9 374.4 3701.9 397.3 3674.8 408.8 3640.4 408.8 3605.3 408.8 3577.9 397.2 3558.2 374 3538.6 350.9 3528.7 319.6 3528.7 280.3ZM3574.8 280.3C3574.8 342.2 3596.6 373.1 3640.3 373.1 3660.8 373.1 3676.7 364.8 3688.3 348.2 3699.9 331.7 3705.7 309 3705.7 280.3 3705.7 219.3 3683.9 188.7 3640.3 188.7 3620.4 188.7 3604.5 196.9 3592.6 213.1 3580.7 229.4 3574.8 251.8 3574.8 280.3ZM3691.9 31.8L3639.9 108.4H3607.6L3646.5 31.8H3691.9ZM3935.3 404.2V260.8C3935.3 234.6 3931.4 216.2 3923.4 205.7 3915.5 195.1 3902.3 189.9 3883.7 189.9 3873.8 189.9 3863.3 192.9 3852.5 198.9 3841.6 204.9 3833.2 212.3 3827.4 221V404.2H3783.6V157.7H3813.5L3827.3 189.4C3841.8 165.2 3865.3 153.1 3898 153.1 3952 153.1 3979 185.9 3979 251.6V404.2H3935.3ZM1715.3 876.2V858C1700.1 873.2 1678 880.8 1649 880.8 1618.2 880.8 1593.2 869.8 1574 847.7S1545.3 796.1 1545.3 759.3C1545.3 722.3 1556.3 690.7 1578.4 664.5S1626.8 625.3 1657.3 625.3C1682.8 625.3 1702.1 631.3 1715.3 643.3V528.9H1759.1V876.2H1715.3ZM1715.3 687C1704.3 670.4 1689.2 662.1 1670 662.1 1646.5 662.1 1627.6 670.9 1613.1 688.4 1598.6 705.8 1591.3 728.1 1591.3 755.1 1591.3 814.5 1618.3 844.2 1672.4 844.2 1679.2 844.2 1687.5 842 1697.2 837.6 1706.8 833.3 1712.9 828.6 1715.4 823.7V687ZM2015.2 757.4H1837.5C1837.5 786.3 1845.4 808.5 1861.2 824 1875.1 837.5 1893.1 844.2 1915.1 844.2 1940.1 844.2 1960.9 836.9 1977.6 822.3L1996 853.9C1989.3 860.6 1978.9 866.4 1965 871.4 1947.5 877.8 1928 881 1906.5 881 1875.6 881 1849.2 870.5 1827.6 849.5 1803.5 826.3 1791.5 795.2 1791.5 756.1 1791.5 715.4 1803.8 682.8 1828.5 658.3 1850.6 636.3 1876.8 625.4 1907 625.4 1942.1 625.4 1969.6 635.2 1989.6 655 2009 674 2018.6 699.3 2018.6 730.7 2018.6 740.4 2017.4 749.3 2015.2 757.4ZM1909 662.2C1889.6 662.2 1873.2 668.5 1860 681 1847.4 693 1840.3 707.9 1838.6 725.7H1975.1C1975.1 708 1969.5 693.3 1958.5 681.5 1946.4 668.6 1929.9 662.2 1909 662.2ZM2199.5 876.4V666.8H2165.7V630H2243.2V876.5H2199.5ZM2223.4 536.7C2231 536.7 2237.4 539.3 2242.7 544.6S2250.6 556.3 2250.6 563.6C2250.6 571.1 2248 577.5 2242.7 582.9S2231 590.8 2223.4 590.8C2216.1 590.8 2209.8 588.1 2204.4 582.9S2196.5 571.1 2196.5 563.6 2199.1 549.8 2204.4 544.5C2209.6 539.3 2215.9 536.7 2223.4 536.7ZM2584 876.4V720.3C2584 681.5 2567.2 662.1 2533.6 662.1 2523 662.1 2513.1 665.4 2503.9 671.9 2494.7 678.4 2488.4 685.8 2485 694.1V876.4H2441.3V701.3C2441.3 689.1 2436.7 679.6 2427.6 672.6S2406.4 662.2 2391.4 662.2C2382.6 662.2 2373.3 665.6 2363.4 672.3 2353.5 679 2346.5 686.5 2342.3 694.6V876.4H2298.6V629.9H2327.2L2341.7 658.4C2358.5 636.3 2379.6 625.3 2405 625.3 2440.2 625.3 2464.9 636.3 2479.1 658.2 2484 648.9 2493.1 641 2506.4 634.7 2519.8 628.4 2533.5 625.3 2547.6 625.3 2573.1 625.3 2592.8 632.9 2606.8 648S2627.7 684.3 2627.7 711.6V876.4H2584ZM2719.5 862.8V973.1H2675.7V629.9H2719.5V650.2C2736 633.6 2756.1 625.3 2779.5 625.3 2814.5 625.3 2841.8 636.2 2861.2 658 2880.7 679.8 2890.5 711.7 2890.5 753.7 2890.5 791.1 2880.6 821.7 2861 845.4 2841.3 869.1 2813 881 2775.8 881 2765.4 881 2754.2 879.1 2742.3 875.5 2730.5 871.8 2722.8 867.6 2719.5 862.8ZM2719.5 683.1V826.7C2722.2 830.8 2728 834.8 2737 838.5 2745.9 842.3 2754.5 844.2 2763 844.2 2817.3 844.2 2844.4 813.5 2844.4 752.1 2844.4 721 2838 698.2 2825.1 683.8 2812.2 669.4 2791.5 662.2 2763.2 662.2 2757 662.2 2749.5 664.3 2740.6 668.6 2731.7 672.9 2724.7 677.7 2719.5 683.1ZM2965.6 629.9V787.1C2965.6 825.2 2982.1 844.2 3015.1 844.2 3029.5 844.2 3042.7 840.1 3054.7 831.8S3074.5 813.9 3078.4 803V629.9H3122.1V876.4H3078.4V842.4C3073.5 852 3063.6 860.9 3048.8 869S3019.5 881.1 3005.5 881.1C2978.5 881.1 2957.8 873.3 2943.4 857.8 2929.1 842.3 2921.9 820.3 2921.9 791.8V630H2965.6ZM3375.2 757.4H3197.5C3197.5 786.3 3205.4 808.5 3221.2 824 3235.1 837.5 3253.1 844.2 3275.1 844.2 3300.1 844.2 3320.9 836.9 3337.6 822.3L3356 853.9C3349.3 860.6 3338.9 866.4 3325 871.4 3307.5 877.8 3288 881 3266.5 881 3235.6 881 3209.2 870.5 3187.6 849.5 3163.5 826.3 3151.5 795.2 3151.5 756.1 3151.5 715.4 3163.8 682.8 3188.5 658.3 3210.6 636.3 3236.8 625.4 3267 625.4 3302.1 625.4 3329.7 635.2 3349.6 655 3369 674 3378.6 699.3 3378.6 730.7 3378.6 740.4 3377.5 749.3 3375.2 757.4ZM3269.1 662.2C3249.6 662.2 3233.2 668.5 3220.1 681 3207.5 693 3200.3 707.9 3198.6 725.7H3335.1C3335.1 708 3329.6 693.3 3318.6 681.5 3306.4 668.6 3289.9 662.2 3269.1 662.2ZM3394.4 861.7L3409.8 820.3C3434.2 836.2 3453.9 844.2 3468.7 844.2 3495.7 844.2 3509.3 832.8 3509.3 810.1 3509.3 793.9 3496.2 779.9 3470.1 768.2 3450 759 3436.5 752 3429.5 747.3 3422.5 742.6 3416.5 737.2 3411.3 731.1 3406.2 725 3402.3 718.6 3399.8 711.7 3397.3 704.9 3396 697.6 3396 689.8 3396 669.5 3403.4 653.7 3418.1 642.3 3432.9 631 3452.1 625.3 3475.9 625.3 3493.9 625.3 3516.5 631 3543.8 642.3L3531.4 682.8C3514.1 669 3496.6 662.1 3479.1 662.1 3468.7 662.1 3459.9 664.5 3452.8 669.5 3445.6 674.4 3442.1 680.6 3442.1 688.1 3442.1 703.9 3451.1 715.9 3469 724L3500.3 738.3C3519.5 747 3533.4 757 3542.2 768.2 3550.9 779.4 3555.3 793.4 3555.3 810.3 3555.3 832.4 3547.5 849.7 3532 862.2 3516.6 874.7 3495.1 881 3467.6 881 3441.7 881 3417.3 874.6 3394.4 861.7ZM3602.8 664.4H3574.3V629.9H3602.8V578.4L3646.6 561.6V629.9H3714.2V664.4H3646.6V786.9C3646.6 807.6 3650.1 822.3 3657.1 831 3664 839.8 3675.3 844.2 3690.8 844.2 3702 844.2 3713.6 841.3 3725.5 835.7L3732 874.1C3713.9 878.7 3694 881 3672.4 881 3652.9 881 3636.4 873.8 3623 859.3S3602.9 826.5 3602.9 804.4V664.4ZM3743.8 752.6C3743.8 714.5 3754 683.8 3774.6 660.4 3795 637 3822 625.3 3855.5 625.3 3890.7 625.3 3918.1 636.5 3937.6 659 3957.1 681.5 3966.9 712.7 3966.9 752.6 3966.9 792.3 3956.9 823.7 3936.9 846.6 3917 869.5 3889.9 881 3855.5 881 3820.3 881 3793 869.4 3773.3 846.3 3753.6 823.1 3743.8 791.9 3743.8 752.6ZM3789.9 752.6C3789.9 814.4 3811.7 845.4 3855.4 845.4 3875.8 845.4 3891.8 837.1 3903.4 820.5 3915 803.9 3920.8 781.3 3920.8 752.6 3920.8 691.5 3899 661 3855.4 661 3835.5 661 3819.6 669.1 3807.7 685.4 3795.8 701.6 3789.9 724.1 3789.9 752.6ZM3982.6 861.7L3998 820.3C4022.4 836.2 4042 844.2 4056.9 844.2 4083.9 844.2 4097.4 832.8 4097.4 810.1 4097.4 793.9 4084.4 779.9 4058.3 768.2 4038.2 759 4024.7 752 4017.7 747.3 4010.7 742.6 4004.6 737.2 3999.5 731.1 3994.4 725 3990.5 718.6 3988 711.7 3985.5 704.9 3984.2 697.6 3984.2 689.8 3984.2 669.5 3991.6 653.7 4006.3 642.3 4021 631 4040.3 625.3 4064.1 625.3 4082 625.3 4104.7 631 4132 642.3L4119.6 682.8C4102.2 669 4084.8 662.1 4067.3 662.1 4056.9 662.1 4048.1 664.5 4041 669.5 4033.8 674.4 4030.2 680.6 4030.2 688.1 4030.2 703.9 4039.2 715.9 4057.1 724L4088.4 738.3C4107.6 747 4121.6 757 4130.3 768.2 4139.1 779.4 4143.5 793.4 4143.5 810.3 4143.5 832.4 4135.7 849.7 4120.2 862.2 4104.7 874.7 4083.2 881 4055.8 881 4029.8 881 4005.5 874.6 3982.6 861.7ZM211 716L330.5 841.5H162.6C135.8 841.5 114.2 819.9 114.2 793.1V578.9C114.2 565.3 120 552.4 129.7 543.2L278.6 406.4C292.7 393.5 313.2 390 330.8 397.8L418 436.3 465.5 457.4 487.9 467.1C512.4 477.8 523.6 506.3 513 530.8 502 555.3 473.5 566.2 449.1 555.6L392 530.5 344.5 509.5 330.1 504 210.7 624.9 189.9 644.6C189.9 644.6 177.5 657.7 176.9 668.3 175.5 690.1 191.9 699.4 191.9 699.4L211 716ZM0 580.6V794C0 820.8 21.6 842.4 48.3 842.4 75 842.4 96.7 820.8 96.7 794V580.6C96.7 553.9 75 532.3 48.3 532.3 21.6 532.3 0 553.9 0 580.6L0 580.6ZM1134.8 328.6C1134.2 330.6 1132.2 341 1127.6 345.6L506.7 963.6C502.1 967.9 496.1 970.5 489.7 970.5 483.1 970.5 477.1 967.9 472.5 963.6L198.9 688.6C194.3 683.7 192 677.6 192 671.6 192 665.3 194.3 659.2 198.9 654.3L334.1 520 381.6 541 250.1 671.6 489.7 912.4 1076.3 328.3 836.7 87.9 476 446.8 428.4 425.8 820.1 36.4C829.3 27.1 844.5 27.1 854 36.6L1127.6 311.3C1132.2 315.9 1134.8 322 1134.8 328.6Z",
        "width": 4158
      },
      "search": [
        "declaracion"
      ]
    },
    {
      "uid": "a71c336cd6e7c3b886d9e41be6115d0b",
      "css": "matriculacion",
      "code": 59394,
      "src": "custom_icons",
      "selected": true,
      "svg": {
        "path": "M1801.7 404.2L1761.7 187.6 1688 408.8H1676.5L1600.8 187.6 1561.7 404.2H1517.9L1581 67H1601.9L1682.2 313 1756.3 67H1777L1845.4 404.2H1801.7ZM2003.9 375.9C1986.4 397.8 1959.7 408.8 1923.6 408.8 1904.3 408.8 1887.5 401.7 1873.3 387.7S1852 356.2 1852 335.3C1852 310.3 1863 289.2 1884.8 272 1906.7 254.7 1934.6 246.1 1968.5 246.1 1977.7 246.1 1988.1 248.1 1999.8 252 1999.8 212.1 1982 192.2 1946.4 192.2 1919.1 192.2 1898.1 199.6 1883.3 214.3L1864.9 177.7C1873.2 171 1884.7 165.2 1899.3 160.4 1914 155.5 1928 153.1 1941.3 153.1 1977.1 153.1 2003.1 161.2 2019.3 177.5S2043.5 219.6 2043.5 255V343.4C2043.5 365.1 2050 379.5 2062.9 386.7V408.6C2045.1 408.6 2031.8 406.1 2023 401 2014.1 395.9 2007.7 387.5 2003.9 375.9ZM1999.8 283.1C1986 280 1976.3 278.5 1970.8 278.5 1948.7 278.5 1930.7 284.2 1916.7 295.5 1902.8 306.9 1895.8 320.3 1895.8 335.8 1895.8 361.4 1910.9 374.2 1941.1 374.2 1963.2 374.2 1982.8 363.7 1999.8 342.7V283.1ZM2113.8 192.2H2085.3V157.7H2113.8V106.1L2157.6 89.3V157.7H2225.2V192.2H2157.6V314.6C2157.6 335.3 2161.1 350.1 2168.1 358.8 2175 367.6 2186.3 371.9 2201.8 371.9 2213 371.9 2224.6 369.1 2236.5 363.4L2243 401.9C2224.9 406.4 2205 408.8 2183.4 408.8 2163.9 408.8 2147.4 401.5 2134 387S2113.9 354.2 2113.9 332.1V192.2ZM2404.9 199.8C2395.4 193.2 2385.8 189.9 2376.1 189.9 2360.6 189.9 2347.1 197 2335.5 211.3 2323.9 225.6 2318.1 242.7 2318.1 262.8V404.2H2274.4V157.7H2318.1V197C2334.1 167.7 2357.8 153.1 2389.2 153.1 2397.1 153.1 2408.3 154.4 2423.1 157.2L2404.9 199.8ZM2461.1 404.2V194.5H2427.3V157.7H2504.9V404.2H2461.1ZM2485.1 64.5C2492.6 64.5 2499 67.1 2504.3 72.4S2512.2 84 2512.2 91.4C2512.2 98.9 2509.6 105.3 2504.3 110.6S2492.6 118.5 2485.1 118.5C2477.7 118.5 2471.4 115.9 2466.1 110.6S2458.2 98.9 2458.2 91.4 2460.8 77.5 2466 72.3C2471.2 67.1 2477.6 64.5 2485.1 64.5ZM2746.2 177.7L2724.6 208.5C2720.1 204.1 2712.3 199.9 2701 195.9 2689.7 191.9 2678.6 189.9 2667.7 189.9 2644 189.9 2625.1 198.2 2611.1 214.9S2590.2 254.4 2590.2 283.3C2590.2 312.2 2597.3 334.2 2611.5 349.3 2625.8 364.4 2645.6 371.9 2670.9 371.9 2690.6 371.9 2710.4 364.3 2730.3 349.2L2747.6 386C2724.1 401.1 2695.1 408.8 2660.4 408.8 2626.8 408.8 2599 397.5 2577.1 374.9 2555.1 352.4 2544.2 321.8 2544.2 283.3 2544.2 244.1 2555.6 212.5 2578.3 188.7 2601.1 165 2632.3 153.1 2671.9 153.1 2684.6 153.1 2698.5 155.8 2713.3 161.1 2728.2 166.5 2739.2 172 2746.2 177.7ZM2820.9 157.7V314.9C2820.9 352.9 2837.4 371.9 2870.4 371.9 2884.8 371.9 2898 367.8 2910 359.5S2929.9 341.6 2933.7 330.8V157.7H2977.5V404.2H2933.7V370.1C2928.8 379.8 2918.9 388.6 2904.1 396.7S2874.9 408.8 2860.8 408.8C2833.8 408.8 2813.1 401.1 2798.7 385.6 2784.4 370.1 2777.2 348.1 2777.2 319.5V157.7H2820.9ZM3026.3 334.4V56.7H3070.1V327.1C3070.1 340.3 3073.9 350.7 3081.5 358.2 3089.1 365.9 3099 369.6 3111.3 369.6V408.8C3054.7 408.8 3026.3 384 3026.3 334.4ZM3287 375.9C3269.5 397.8 3242.7 408.8 3206.7 408.8 3187.3 408.8 3170.6 401.7 3156.4 387.7S3135.1 356.2 3135.1 335.3C3135.1 310.3 3146 289.2 3167.9 272 3189.8 254.7 3217.6 246.1 3251.6 246.1 3260.8 246.1 3271.2 248.1 3282.9 252 3282.9 212.1 3265 192.2 3229.4 192.2 3202.1 192.2 3181.1 199.6 3166.4 214.3L3148 177.7C3156.3 171 3167.7 165.2 3182.4 160.4 3197.1 155.5 3211 153.1 3224.4 153.1 3260.1 153.1 3286.1 161.2 3302.3 177.5S3326.6 219.6 3326.6 255V343.4C3326.6 365.1 3333.1 379.5 3345.9 386.7V408.6C3328.1 408.6 3314.8 406.1 3306 401 3297.2 395.9 3290.8 387.5 3287 375.9ZM3282.9 283.1C3269.1 280 3259.4 278.5 3253.9 278.5 3231.8 278.5 3213.7 284.2 3199.8 295.5 3185.8 306.9 3178.9 320.3 3178.9 335.8 3178.9 361.4 3194 374.2 3224.2 374.2 3246.3 374.2 3265.8 363.7 3282.9 342.7V283.1ZM3567.2 177.7L3545.6 208.5C3541.1 204.1 3533.3 199.9 3522 195.9 3510.7 191.9 3499.6 189.9 3488.7 189.9 3465 189.9 3446.1 198.2 3432.1 214.9S3411.2 254.4 3411.2 283.3C3411.2 312.2 3418.3 334.2 3432.5 349.3 3446.8 364.4 3466.6 371.9 3491.9 371.9 3511.6 371.9 3531.4 364.3 3551.3 349.2L3568.6 386C3545.1 401.1 3516.1 408.8 3481.4 408.8 3447.8 408.8 3420 397.5 3398.1 374.9 3376.1 352.4 3365.2 321.8 3365.2 283.3 3365.2 244.1 3376.6 212.5 3399.3 188.7 3422.1 165 3453.3 153.1 3492.9 153.1 3505.6 153.1 3519.5 155.8 3534.3 161.1 3549.2 166.5 3560.2 172 3567.2 177.7ZM3621.6 404.2V194.5H3587.8V157.7H3665.4V404.2H3621.6ZM3645.6 64.5C3653.1 64.5 3659.5 67.1 3664.8 72.4S3672.8 84 3672.8 91.4C3672.8 98.9 3670.1 105.3 3664.8 110.6S3653.1 118.5 3645.6 118.5C3638.2 118.5 3631.9 115.9 3626.6 110.6S3618.7 98.9 3618.7 91.4 3621.3 77.5 3626.5 72.3C3631.7 67.1 3638.1 64.5 3645.6 64.5ZM3704.7 280.3C3704.7 242.3 3714.9 211.6 3735.4 188.1 3755.9 164.8 3782.8 153.1 3816.3 153.1 3851.6 153.1 3879 164.3 3898.5 186.8 3917.9 209.2 3927.7 240.5 3927.7 280.3 3927.7 320.1 3917.8 351.4 3897.8 374.4 3877.9 397.3 3850.7 408.8 3816.3 408.8 3781.2 408.8 3753.8 397.2 3734.2 374 3714.5 350.9 3704.7 319.6 3704.7 280.3ZM3750.7 280.3C3750.7 342.2 3772.6 373.1 3816.3 373.1 3836.7 373.1 3852.7 364.8 3864.3 348.2 3875.9 331.7 3881.6 309 3881.6 280.3 3881.6 219.3 3859.8 188.7 3816.3 188.7 3796.3 188.7 3780.4 196.9 3768.5 213.1 3756.6 229.4 3750.7 251.8 3750.7 280.3ZM3867.8 31.8L3815.8 108.4H3783.6L3822.5 31.8H3867.8ZM4111.2 404.2V260.8C4111.2 234.6 4107.3 216.2 4099.4 205.7 4091.5 195.1 4078.2 189.9 4059.7 189.9 4049.7 189.9 4039.3 192.9 4028.4 198.9 4017.5 204.9 4009.1 212.3 4003.3 221V404.2H3959.5V157.7H3989.5L4003.2 189.4C4017.7 165.2 4041.2 153.1 4073.9 153.1 4127.9 153.1 4154.9 185.9 4154.9 251.6V404.2H4111.2ZM2055.9 881H2044.4L1938.7 629.3H1986.6L2051.7 801.9 2118.3 629.3H2164L2055.9 881ZM2391.4 757.4H2213.7C2213.7 786.3 2221.6 808.5 2237.4 824 2251.3 837.5 2269.3 844.2 2291.3 844.2 2316.3 844.2 2337.1 836.9 2353.8 822.3L2372.2 853.9C2365.5 860.6 2355.1 866.4 2341.2 871.4 2323.7 877.8 2304.2 881 2282.7 881 2251.8 881 2225.4 870.5 2203.8 849.5 2179.7 826.3 2167.7 795.2 2167.7 756.1 2167.7 715.4 2180 682.8 2204.7 658.3 2226.8 636.3 2253 625.4 2283.2 625.4 2318.3 625.4 2345.8 635.2 2365.8 655 2385.2 674 2394.8 699.3 2394.8 730.7 2394.8 740.4 2393.6 749.3 2391.4 757.4ZM2285.2 662.2C2265.8 662.2 2249.4 668.5 2236.2 681 2223.6 693 2216.5 707.9 2214.8 725.7H2351.3C2351.3 708 2345.7 693.3 2334.7 681.5 2322.6 668.6 2306.1 662.2 2285.2 662.2ZM2578.5 876.4V721.6C2578.5 703.1 2574 688.6 2564.9 678 2555.9 667.4 2543.1 662.2 2526.7 662.2 2516.1 662.2 2505.5 665.3 2494.9 671.5S2476.1 685 2470.4 693.2V876.5H2426.6V528.9H2470.4V657.1C2476.2 648 2485.6 640.5 2498.5 634.4 2511.5 628.3 2524.9 625.3 2538.7 625.3 2564.8 625.3 2585.2 633.9 2600 651.1S2622.3 691.8 2622.3 721.5V876.4H2578.5ZM2691.2 876.4V666.8H2657.4V630H2735V876.5H2691.2ZM2715.2 536.7C2722.7 536.7 2729.1 539.3 2734.4 544.6S2742.4 556.3 2742.4 563.6C2742.4 571.1 2739.7 577.5 2734.4 582.9S2722.7 590.8 2715.2 590.8C2707.8 590.8 2701.5 588.1 2696.2 582.9S2688.3 571.1 2688.3 563.6 2690.9 549.8 2696.1 544.5C2701.3 539.3 2707.7 536.7 2715.2 536.7ZM2976.3 649.9L2954.7 680.8C2950.2 676.4 2942.4 672.1 2931 668.1 2919.8 664.2 2908.7 662.2 2897.8 662.2 2874 662.2 2855.2 670.5 2841.2 687.1S2820.2 726.6 2820.2 755.6C2820.2 784.4 2827.4 806.4 2841.6 821.5 2855.9 836.6 2875.7 844.2 2901 844.2 2920.7 844.2 2940.5 836.6 2960.4 821.4L2977.7 858.2C2954.2 873.4 2925.1 881 2890.4 881 2856.8 881 2829.1 869.7 2807.2 847.2 2785.2 824.6 2774.2 794.1 2774.2 755.6 2774.2 716.3 2785.6 684.8 2808.4 661 2831.2 637.2 2862.4 625.4 2902 625.4 2914.7 625.4 2928.5 628 2943.4 633.4 2958.3 638.8 2969.2 644.3 2976.3 649.9ZM3051 629.9V787.1C3051 825.2 3067.5 844.2 3100.5 844.2 3114.9 844.2 3128.1 840.1 3140.1 831.8S3159.9 813.9 3163.8 803V629.9H3207.5V876.4H3163.8V842.4C3158.9 852 3149 860.9 3134.2 869S3104.9 881.1 3090.8 881.1C3063.8 881.1 3043.2 873.3 3028.8 857.8 3014.5 842.3 3007.3 820.3 3007.3 791.8V630H3051ZM3256.4 806.7V528.9H3300.2V799.3C3300.2 812.5 3303.9 822.9 3311.5 830.5 3319.2 838.1 3329.1 841.9 3341.3 841.9V881C3284.7 881 3256.4 856.3 3256.4 806.7ZM3517.1 848.1C3499.6 870.1 3472.8 881 3436.8 881 3417.4 881 3400.6 874 3386.5 860S3365.2 828.5 3365.2 807.6C3365.2 782.6 3376.1 761.5 3398 744.2 3419.8 726.9 3447.7 718.3 3481.6 718.3 3490.9 718.3 3501.3 720.3 3512.9 724.3 3512.9 684.4 3495.1 664.5 3459.5 664.5 3432.2 664.5 3411.2 671.8 3396.5 686.6L3378.1 650C3386.3 643.2 3397.8 637.4 3412.5 632.6 3427.1 627.7 3441.1 625.4 3454.5 625.4 3490.2 625.4 3516.2 633.5 3532.4 649.7S3556.7 691.9 3556.7 727.3V815.7C3556.7 837.3 3563.1 851.7 3576 858.9V880.8C3558.2 880.8 3544.9 878.3 3536.1 873.2 3527.2 868.1 3520.9 859.7 3517.1 848.1ZM3512.9 755.4C3499.1 752.3 3489.5 750.7 3483.9 750.7 3461.8 750.7 3443.8 756.4 3429.9 767.8 3415.9 779.1 3408.9 792.5 3408.9 808.1 3408.9 833.7 3424.1 846.5 3454.2 846.5 3476.4 846.5 3495.9 836 3512.9 815V755.4ZM3745.3 672C3735.8 665.4 3726.2 662.2 3716.5 662.2 3701 662.2 3687.5 669.3 3675.9 683.5 3664.3 697.8 3658.5 715 3658.5 735.1V876.4H3614.8V629.9H3658.5V669.3C3674.5 640 3698.2 625.4 3729.7 625.4 3737.5 625.4 3748.8 626.7 3763.5 629.5L3745.3 672ZM867.1 229.7C848.4 104.5 725 95.3 725 95.3S421.2 95.3 271.3 95.3 124.8 229.7 124.8 229.7L87.8 457.1C38.3 464.3 0 506.9 0 558.5V671.8C0 728.5 45.9 774.5 102.6 774.5H112.2V816.2C112.2 865.1 151.9 904.7 200.8 904.7 249.8 904.7 289.5 865.1 289.5 816.2V774.5H730.9V816.2C730.9 865.1 770.7 904.7 819.8 904.7 868.7 904.7 908.3 865.1 908.3 816.2V774.5H918C974.6 774.5 1020.5 728.5 1020.5 671.8V558.5C1020.5 501.9 974.6 456 918 456H900.9C900.9 456 900.9 456 867.1 229.7ZM114 660.4C70 660.4 34.4 624.8 34.4 580.9 34.4 536.8 70 501.2 114 501.2 158 501.2 193.6 536.9 193.6 580.9 193.6 624.8 158 660.4 114 660.4ZM863.4 443.2H486.2 208.7 125.7L162.6 227.7C162.6 227.7 164.3 130.3 277.2 130.3 390 130.3 723 130.3 723 130.3S808.3 129.9 826.2 231.6C863.4 443.2 863.4 443.2 863.4 443.2ZM906.5 660.4C862.5 660.4 826.9 624.8 826.9 580.9 826.9 536.8 862.6 501.2 906.5 501.2 950.5 501.2 986.1 536.9 986.1 580.9 986.1 624.8 950.5 660.4 906.5 660.4Z",
        "width": 4186
      },
      "search": [
        "matriculacion"
      ]
    },
    {
      "uid": "6f883f2166aa3734b5c118d0d0b5d70c",
      "css": "comprobantes",
      "code": 59395,
      "src": "custom_icons",
      "selected": true,
      "svg": {
        "path": "M1667.5 97.5L1652.8 135.2C1638.7 124.9 1616.5 119.7 1586.2 119.7 1557.9 119.7 1535.2 131.9 1518.1 156.3 1500.9 180.6 1492.4 212.1 1492.4 250.6 1492.4 287.3 1501.2 317.1 1518.8 339.9 1536.3 362.7 1559 374.1 1586.7 374.1 1617 374.1 1640.2 363.4 1656.5 342L1680.8 375.7C1655.2 401.1 1622.3 413.8 1582.1 413.8 1539.9 413.8 1506.8 398.6 1482.5 368.2S1446.1 297.7 1446.1 247.9C1446.1 199.7 1459.1 159.7 1484.9 127.8 1510.8 96 1544.2 80 1585.1 80 1620.2 80.1 1647.7 85.9 1667.5 97.5ZM1699.2 289.8C1699.2 253.3 1708.9 223.9 1728.6 201.5 1748.2 179.2 1774 168 1806 168 1839.8 168 1866 178.7 1884.7 200.2 1903.3 221.7 1912.6 251.6 1912.6 289.8 1912.6 327.8 1903.1 357.8 1884 379.8 1864.9 401.7 1838.9 412.7 1806 412.7 1772.4 412.7 1746.2 401.6 1727.4 379.4 1708.5 357.2 1699.2 327.4 1699.2 289.8ZM1743.2 289.8C1743.2 349 1764.1 378.6 1806 378.6 1825.5 378.6 1840.8 370.6 1851.9 354.7 1863 338.9 1868.5 317.2 1868.5 289.8 1868.5 231.3 1847.7 202.1 1806 202.1 1786.9 202.1 1771.6 209.9 1760.3 225.5 1748.9 241 1743.2 262.5 1743.2 289.8ZM2216.3 408.3V258.9C2216.3 221.8 2200.2 203.2 2168 203.2 2157.9 203.2 2148.4 206.3 2139.6 212.5 2130.8 218.7 2124.8 225.9 2121.6 233.8V408.2H2079.7V240.7C2079.7 229 2075.3 219.9 2066.6 213.2S2046.3 203.2 2031.9 203.2C2023.6 203.2 2014.6 206.5 2005.2 212.9 1995.7 219.3 1989 226.5 1985 234.2V408.3H1943.1V172.4H1970.5L1984.3 199.7C2000.5 178.5 2020.7 168 2044.9 168 2078.7 168 2102.3 178.5 2115.8 199.5 2120.5 190.5 2129.3 183 2142 177 2154.8 171 2168 168 2181.4 168 2205.8 168 2224.7 175.2 2238.1 189.7S2258.1 224.4 2258.1 250.6V408.3H2216.3ZM2345.9 395.3V500.8H2304V172.4H2345.9V191.8C2361.8 175.9 2380.9 168 2403.4 168 2436.9 168 2463 178.4 2481.6 199.2 2500.2 220.1 2509.6 250.6 2509.6 290.9 2509.6 326.7 2500.2 356 2481.4 378.6 2462.6 401.3 2435.4 412.7 2399.8 412.7 2389.9 412.7 2379.2 410.9 2367.8 407.4 2356.5 403.9 2349.2 399.8 2345.9 395.3ZM2345.9 223.3V360.7C2348.6 364.7 2354.1 368.5 2362.7 372.1 2371.2 375.7 2379.5 377.4 2387.6 377.4 2439.5 377.4 2465.5 348.1 2465.5 289.3 2465.5 259.6 2459.3 237.7 2447 223.9 2434.7 210.2 2414.9 203.2 2387.8 203.2 2381.9 203.2 2374.7 205.3 2366.2 209.4 2357.7 213.5 2350.9 218.1 2345.9 223.3ZM2670.1 212.7C2661 206.4 2651.8 203.2 2642.6 203.2 2627.7 203.2 2614.7 210 2603.7 223.7 2592.6 237.4 2587 253.8 2587 273V408.3H2545.2V172.4H2587V210.1C2602.3 182 2625 168 2655.1 168 2662.6 168 2673.4 169.3 2687.5 171.9L2670.1 212.7ZM2688.3 289.8C2688.3 253.3 2698.1 223.9 2717.7 201.5 2737.3 179.2 2763.1 168 2795.1 168 2828.9 168 2855.1 178.7 2873.8 200.2 2892.4 221.7 2901.7 251.6 2901.7 289.8 2901.7 327.8 2892.2 357.8 2873.1 379.8 2854.1 401.7 2828.1 412.7 2795.2 412.7 2761.5 412.7 2735.3 401.6 2716.5 379.4 2697.7 357.2 2688.3 327.4 2688.3 289.8ZM2732.3 289.8C2732.3 349 2753.3 378.6 2795.1 378.6 2814.6 378.6 2829.9 370.6 2841 354.7 2852.1 338.9 2857.7 317.2 2857.7 289.8 2857.7 231.3 2836.8 202.1 2795.1 202.1 2776 202.1 2760.8 209.9 2749.4 225.5 2738 241 2732.3 262.5 2732.3 289.8ZM2967.9 391.3L2953.2 412.7H2932.2V75.7H2974.1V189.8C2978.1 184.3 2985.5 179.4 2996.5 174.8S3018.1 168 3028.8 168C3061.1 168 3087.2 179.1 3107.3 201.5S3137.3 252 3137.3 286.1C3137.3 325.4 3127.3 356.4 3107.2 378.9 3087 401.5 3059.8 412.7 3025.4 412.7 3014.3 412.7 3003.3 410.7 2992.5 406.5 2981.7 402.2 2973.5 397.2 2967.9 391.3ZM2974.1 221.7V357.8C2974.1 360.2 2979.3 364.1 2989.7 369.4S3008.1 377.4 3013.5 377.4C3042 377.4 3062.4 370.6 3074.8 357 3087.1 343.3 3093.3 320.4 3093.3 288.2 3093.3 261.5 3086.1 240.7 3071.7 225.7S3037.9 203.2 3013.5 203.2C3008.4 203.2 3001.3 205.4 2992.1 209.8 2982.8 214.2 2976.9 218.2 2974.1 221.7ZM3303.3 381.2C3286.6 402.2 3260.9 412.7 3226.4 412.7 3207.9 412.7 3191.9 406 3178.3 392.5S3157.9 362.4 3157.9 342.4C3157.9 318.5 3168.4 298.3 3189.3 281.7 3210.3 265.2 3236.9 256.9 3269.4 256.9 3278.2 256.9 3288.2 258.9 3299.3 262.7 3299.3 224.5 3282.3 205.4 3248.2 205.4 3222.1 205.4 3202 212.5 3187.9 226.6L3170.3 191.5C3178.2 185.1 3189.2 179.5 3203.2 174.9 3217.2 170.3 3230.6 168 3243.4 168 3277.6 168 3302.5 175.7 3318 191.3S3341.2 231.6 3341.2 265.5V350.1C3341.2 370.9 3347.4 384.6 3359.7 391.6V412.5C3342.7 412.5 3330 410.1 3321.5 405.2 3313 400.3 3306.9 392.3 3303.3 381.2ZM3299.3 292.4C3286.1 289.5 3276.9 288 3271.6 288 3250.4 288 3233.2 293.4 3219.8 304.3 3206.5 315.1 3199.8 328 3199.8 342.8 3199.8 367.4 3214.3 379.6 3243.2 379.6 3264.4 379.6 3283.1 369.5 3299.3 349.4V292.4ZM3538.6 408.3V271.1C3538.6 245.9 3534.9 228.4 3527.3 218.3 3519.7 208.2 3507.1 203.2 3489.3 203.2 3479.8 203.2 3469.8 206.1 3459.4 211.8 3449 217.5 3440.9 224.6 3435.3 233V408.3H3393.5V172.4H3422.1L3435.3 202.8C3449.1 179.6 3471.7 168 3503 168 3554.6 168 3580.5 199.4 3580.5 262.3V408.3H3538.6ZM3641.5 205.4H3614.1V172.4H3641.5V123L3683.3 107V172.4H3748.1V205.4H3683.3V322.6C3683.3 342.4 3686.7 356.5 3693.3 364.9 3700 373.3 3710.8 377.4 3725.6 377.4 3736.3 377.4 3747.4 374.7 3758.9 369.3L3765.1 406.1C3747.8 410.5 3728.7 412.7 3708 412.7 3689.4 412.7 3673.6 405.8 3660.8 391.9S3641.5 360.5 3641.5 339.3V205.4ZM3990.5 294.4H3820.5C3820.5 322 3828 343.2 3843.2 358.1 3856.5 371 3873.7 377.4 3894.7 377.4 3918.6 377.4 3938.6 370.5 3954.6 356.5L3972.2 386.7C3965.8 393.1 3955.8 398.7 3942.5 403.5 3925.7 409.6 3907.1 412.7 3886.5 412.7 3856.9 412.7 3831.7 402.6 3811 382.5 3788 360.3 3776.4 330.5 3776.4 293.1 3776.4 254.2 3788.2 223 3811.9 199.5 3833 178.5 3858.1 168 3887 168 3920.6 168 3947 177.4 3966.1 196.4 3984.6 214.6 3993.8 238.7 3993.8 268.8 3993.8 278.1 3992.7 286.6 3990.5 294.4ZM3889 203.2C3870.4 203.2 3854.7 209.2 3842.1 221.3 3830 232.7 3823.2 247 3821.6 264H3952.2C3952.2 247.1 3946.9 233 3936.3 221.7 3924.7 209.4 3908.9 203.2 3889 203.2ZM4008.9 394.2L4023.7 354.6C4047 369.8 4065.8 377.4 4080 377.4 4105.9 377.4 4118.8 366.6 4118.8 344.9 4118.8 329.3 4106.3 315.9 4081.4 304.8 4062.1 295.9 4049.2 289.3 4042.5 284.7 4035.8 280.2 4030 275 4025.1 269.2 4020.2 263.4 4016.5 257.2 4014.1 250.7 4011.7 244.2 4010.4 237.2 4010.4 229.7 4010.4 210.3 4017.5 195.1 4031.6 184.3 4045.7 173.4 4064.1 168 4086.9 168 4104.1 168 4125.7 173.4 4151.9 184.3L4140 223C4123.4 209.8 4106.7 203.2 4090 203.2 4080 203.2 4071.6 205.5 4064.8 210.3 4057.9 215 4054.5 220.9 4054.5 228.1 4054.5 243.2 4063.1 254.7 4080.3 262.5L4110.2 276.1C4128.6 284.5 4141.9 294 4150.3 304.7 4158.7 315.4 4162.9 328.9 4162.9 345.1 4162.9 366.2 4155.5 382.8 4140.6 394.7 4125.8 406.7 4105.3 412.7 4079 412.7 4054.1 412.7 4030.8 406.5 4008.9 394.2ZM1871.7 746.4H1701.6C1701.6 774 1709.2 795.2 1724.3 810.1 1737.7 823 1754.9 829.4 1775.9 829.4 1799.8 829.4 1819.8 822.5 1835.8 808.5L1853.4 838.7C1847 845.1 1837 850.7 1823.7 855.4 1806.9 861.6 1788.3 864.7 1767.7 864.7 1738.1 864.7 1712.9 854.6 1692.2 834.5 1669.2 812.3 1657.6 782.5 1657.6 745.1 1657.6 706.2 1669.4 675 1693.1 651.5 1714.2 630.5 1739.3 620 1768.2 620 1801.8 620 1828.2 629.4 1847.3 648.4 1865.8 666.6 1875 690.7 1875 720.8 1875 730.1 1873.9 738.6 1871.7 746.4ZM1770.1 655.2C1751.5 655.2 1735.8 661.2 1723.2 673.3 1711.2 684.7 1704.4 699 1702.7 716H1833.3C1833.3 699.1 1828.1 685 1817.5 673.7 1805.9 661.4 1790.1 655.2 1770.1 655.2ZM1908.9 793.5V527.7H1950.7V786.5C1950.7 799.1 1954.3 809.1 1961.6 816.3 1968.9 823.6 1978.4 827.2 1990.1 827.2V864.7C1935.9 864.7 1908.9 841 1908.9 793.5ZM2223.7 746.4H2053.7C2053.7 774 2061.2 795.2 2076.4 810.1 2089.7 823 2106.9 829.4 2127.9 829.4 2151.9 829.4 2171.8 822.5 2187.8 808.5L2205.4 838.7C2199 845.1 2189.1 850.7 2175.7 855.4 2159 861.6 2140.3 864.7 2119.8 864.7 2090.1 864.7 2064.9 854.6 2044.2 834.5 2021.2 812.3 2009.7 782.5 2009.7 745.1 2009.7 706.2 2021.4 675 2045.1 651.5 2066.3 630.5 2091.3 620 2120.2 620 2153.8 620 2180.2 629.4 2199.3 648.4 2217.8 666.6 2227 690.7 2227 720.8 2227 730.1 2225.9 738.6 2223.7 746.4ZM2122.2 655.2C2103.6 655.2 2087.9 661.2 2075.3 673.3 2063.2 684.7 2056.4 699 2054.8 716H2185.4C2185.4 699.1 2180.1 685 2169.6 673.7 2157.9 661.4 2142.1 655.2 2122.2 655.2ZM2435.5 643.5L2414.9 673.1C2410.6 668.8 2403.1 664.8 2392.2 661 2381.5 657.2 2370.9 655.2 2360.4 655.2 2337.7 655.2 2319.6 663.2 2306.2 679.1S2286.2 716.9 2286.2 744.7C2286.2 772.3 2293 793.3 2306.7 807.8 2320.3 822.2 2339.3 829.4 2363.5 829.4 2382.3 829.4 2401.3 822.2 2420.3 807.7L2436.9 842.9C2414.4 857.4 2386.6 864.7 2353.4 864.7 2321.2 864.7 2294.7 853.9 2273.7 832.3 2252.7 810.7 2242.2 781.5 2242.2 744.7 2242.2 707.1 2253.1 676.9 2274.9 654.1 2296.7 631.4 2326.5 620 2364.4 620 2376.6 620 2389.8 622.6 2404 627.7 2418.3 632.8 2428.8 638.1 2435.5 643.5ZM2482.4 657.4H2455V624.3H2482.4V575L2524.2 558.9V624.3H2589V657.4H2524.2V774.6C2524.2 794.4 2527.6 808.5 2534.3 816.8 2540.9 825.2 2551.7 829.4 2566.5 829.4 2577.2 829.4 2588.4 826.7 2599.8 821.3L2606 858.1C2588.7 862.5 2569.6 864.7 2548.9 864.7 2530.3 864.7 2514.5 857.7 2501.7 843.8S2482.4 812.5 2482.4 791.3V657.4ZM2760.9 664.7C2751.8 658.3 2742.6 655.2 2733.4 655.2 2718.6 655.2 2705.6 662 2694.5 675.7 2683.4 689.3 2677.9 705.8 2677.9 725V860.3H2636V624.3H2677.9V662C2693.1 634 2715.8 620 2746 620 2753.5 620 2764.2 621.3 2778.3 623.9L2760.9 664.7ZM2779.1 741.8C2779.1 705.3 2788.9 675.9 2808.6 653.5 2828.2 631.2 2854 619.9 2886 619.9 2919.7 619.9 2946 630.7 2964.6 652.2 2983.2 673.7 2992.6 703.6 2992.6 741.8 2992.6 779.8 2983.1 809.8 2964 831.8 2944.9 853.7 2918.9 864.7 2886 864.7 2852.4 864.7 2826.2 853.6 2807.4 831.4 2788.5 809.2 2779.1 779.4 2779.1 741.8ZM2823.2 741.8C2823.2 801 2844.1 830.6 2886 830.6 2905.5 830.6 2920.8 822.6 2931.9 806.7 2943 790.9 2948.5 769.2 2948.5 741.8 2948.5 683.3 2927.7 654.1 2886 654.1 2866.8 654.1 2851.6 661.9 2840.2 677.5 2828.9 693 2823.2 714.5 2823.2 741.8ZM2935.3 503.9L2885.5 577.2H2854.7L2891.9 503.9H2935.3ZM3168.2 860.3V723.1C3168.2 697.9 3164.4 680.4 3156.9 670.3 3149.3 660.2 3136.7 655.2 3118.9 655.2 3109.4 655.2 3099.3 658.1 3088.9 663.8 3078.5 669.5 3070.5 676.6 3064.9 685V860.3H3023V624.4H3051.7L3064.9 654.8C3078.7 631.6 3101.2 620 3132.5 620 3184.2 620 3210.1 651.4 3210.1 714.3V860.3H3168.2ZM3276.3 860.3V659.6H3244V624.4H3318.2V860.3H3276.3ZM3299.2 535.1C3306.4 535.1 3312.5 537.7 3317.6 542.7S3325.2 553.9 3325.2 560.9C3325.2 568.1 3322.7 574.2 3317.6 579.3S3306.4 586.9 3299.2 586.9C3292.2 586.9 3286.1 584.4 3281 579.3S3273.5 568.1 3273.5 560.9 3276 547.6 3281 542.6C3285.9 537.6 3292 535.1 3299.2 535.1ZM3549.1 643.5L3528.4 673.1C3524.2 668.8 3516.7 664.8 3505.8 661 3495.1 657.2 3484.5 655.2 3474 655.2 3451.3 655.2 3433.2 663.2 3419.8 679.1S3399.8 716.9 3399.8 744.7C3399.8 772.3 3406.6 793.3 3420.2 807.8 3433.9 822.2 3452.9 829.4 3477.1 829.4 3495.9 829.4 3514.9 822.2 3533.9 807.7L3550.4 842.9C3528 857.4 3500.2 864.7 3467 864.7 3434.8 864.7 3408.2 853.9 3387.3 832.3 3366.2 810.7 3355.8 781.5 3355.8 744.7 3355.8 707.1 3366.7 676.9 3388.4 654.1 3410.3 631.4 3440.1 620 3478 620 3490.2 620 3503.4 622.6 3517.6 627.7 3531.9 632.8 3542.4 638.1 3549.1 643.5ZM3565.6 741.8C3565.6 705.3 3575.4 675.9 3595 653.5 3614.6 631.2 3640.4 619.9 3672.4 619.9 3706.2 619.9 3732.4 630.7 3751.1 652.2 3769.7 673.7 3779 703.6 3779 741.8 3779 779.8 3769.5 809.8 3750.4 831.8 3731.4 853.7 3705.3 864.7 3672.5 864.7 3638.8 864.7 3612.6 853.6 3593.8 831.4 3575 809.2 3565.6 779.4 3565.6 741.8ZM3609.6 741.8C3609.6 801 3630.6 830.6 3672.4 830.6 3691.9 830.6 3707.2 822.6 3718.3 806.7 3729.4 790.9 3735 769.2 3735 741.8 3735 683.3 3714.1 654.1 3672.4 654.1 3653.3 654.1 3638.1 661.9 3626.7 677.5 3615.3 693 3609.6 714.5 3609.6 741.8ZM3794.1 846.2L3808.9 806.5C3832.2 821.8 3851 829.4 3865.3 829.4 3891.1 829.4 3904.1 818.6 3904.1 796.8 3904.1 781.3 3891.6 767.9 3866.6 756.7 3847.4 747.9 3834.4 741.2 3827.7 736.7 3821 732.1 3815.2 727 3810.3 721.2 3805.4 715.4 3801.7 709.2 3799.3 702.6 3796.9 696.1 3795.7 689.1 3795.7 681.6 3795.7 662.2 3802.7 647.1 3816.8 636.2 3830.9 625.4 3849.3 619.9 3872.1 619.9 3889.3 619.9 3911 625.4 3937.1 636.2L3925.2 675C3908.7 661.8 3892 655.2 3875.2 655.2 3865.2 655.2 3856.8 657.5 3850 662.2 3843.2 666.9 3839.8 672.9 3839.8 680.1 3839.8 695.2 3848.3 706.6 3865.5 714.4L3895.4 728.1C3913.8 736.4 3927.2 746 3935.6 756.7 3943.9 767.4 3948.1 780.9 3948.1 797 3948.1 818.2 3940.7 834.7 3925.8 846.7 3911 858.7 3890.5 864.7 3864.2 864.7 3839.4 864.7 3816 858.5 3794.1 846.2ZM1068.4 556.8C1068.5 445.9 1068.6 335.1 1068.7 224.2 1068.7 190.8 1052.1 172.7 1019.1 172.6 923.4 172.4 827.6 172.4 731.8 172.4 741.4 190.9 750.9 209.4 760.5 227.9H967.2C999.8 227.9 1015.1 243 1015.2 275.9 1015.3 358 1015.6 440.1 1015.3 522.1 1015.2 562.1 1013.6 602.1 1013.3 642.1 1013.2 662 1015.2 681.9 1015 701.8 1014.6 733.2 1000 747.3 969 747.3 847.5 747.4 726.1 747.4 604.6 747.4H240.2C209.5 747.4 194.3 733.1 194.3 701.8 194.2 658.1 195.9 614.3 195.8 570.6 195.6 473.6 194.7 376.6 194.3 279.6 194.2 251.8 201.6 237 220.3 231.1 219.6 229.6 218.8 228.1 218.1 226.6 209 209 205.3 190.4 206.6 172.4H199.2C154.4 172.6 140.6 187.3 140.6 232 140.5 400.5 140.5 569 140.6 737.4 140.6 779.6 156.6 795.4 199.5 795.3 267.3 795.2 335.1 794.6 403 794.6 607.1 794.8 811.3 794.9 1015.4 795.5 1043.4 795.6 1070.4 778.9 1069.2 741.1 1067.3 679.8 1068.4 618.2 1068.4 556.8ZM604.1 180.7C573.8 196.4 543.7 212.1 513.4 227.9H514.8C547.1 211.1 579.4 194.4 611.7 177.5 609.2 178.3 606.7 179.3 604.1 180.7ZM1084.7 836.6C1064.3 820.7 1042.7 814.5 1017.6 814.8 954.7 815.5 891.8 815.3 828.9 815.3 612.1 815.2 395.4 815 178.6 815.3 167.3 815.4 153.7 816.9 144.9 823.1 96 857.1 48.3 892.9 0.1 928.1 0.3 930.1 0.4 932.2 0.5 934.3 16.3 935.9 32 938.8 47.8 938.8 338 939.1 628.3 939 918.5 939.1 1001.4 939.1 1084.2 939.3 1167 938.8 1181 938.7 1195 935.5 1209 933.7 1209.1 931.9 1209.1 930 1209.2 928.1 1167.6 897.8 1125.3 868.3 1084.7 836.6ZM0 950.4H116.9C242.7 950.4 368.5 950.2 494.3 950.8 502.4 950.8 510.4 956.6 518.5 959.4 527.6 962.6 536.9 967.9 546.2 968.1 587.2 969.1 628.4 968.7 669.5 968.3 675.9 968.2 685.8 967.1 688.3 962.9 697.8 946.9 712.2 950.4 726 950.4 879.8 950.4 1033.6 950.4 1187.4 950.4H1207.6C1211.3 978.3 1193.4 999.3 1165.1 999.6 1107.8 1000.3 1050.5 999.9 993.2 999.9 737.9 999.9 482.5 999.9 227.1 999.9 168 999.9 108.8 1000.2 49.7 999.9 17.8 999.8 0.9 983.4 0 950.4L0 950.4ZM826.9 500.2C821.8 505.5 816 509.9 810.6 514.8 800.1 520.3 789.6 525.8 779 531.3H702.7C732.1 515.9 761.5 500.6 790.9 485.2 801.7 479.6 810.5 471.6 815.7 460.1 823.7 442.7 821.1 426.3 812.7 409.9 781.4 349.2 750.1 288.6 718.9 227.9 709.4 209.5 699.9 191 690.3 172.5 682.4 157 674.4 141.5 666.5 126.1 665.3 123.8 664 121.6 662.6 119.4 655.3 108.9 648 105.9 635.6 109.1 630.7 110.4 625.8 112.3 621.2 114.5 604.9 122.6 588.7 131 572.4 139.2 560.6 145.2 548.9 151.7 536.8 157.3 526.1 162.3 514.1 158.4 507.4 148.6 505.4 145.7 503.7 142.7 502.2 139.7 488.1 113 474.4 86.2 460.2 59.6 457.4 54.4 453.3 49.7 448.9 45.6 442.8 40 435.3 38.4 427.5 42.4 374.6 69.9 321.6 97.5 268.7 125.2 253.3 133.3 243.3 145.9 240.2 163.6 239.7 166.5 239.5 169.5 239.5 172.3 239.6 182.1 242.9 191.3 247.5 200.2 252.2 209.4 256.9 218.7 261.7 227.9 291 284.7 320.2 341.5 349.4 398.4 372.2 442.7 395 487 417.9 531.3H374.8C358.3 499.4 342 467.5 325.5 435.6 290.5 367.4 255.4 299.2 220.3 231.1 219.6 229.6 218.8 228.1 218.1 226.6 209 209 205.3 190.4 206.6 172.4 208.1 150.7 217.2 129.9 233.2 113 238.2 107.7 244 103.2 249.5 98.4 310.6 66.6 371.7 34.7 432.9 2.9 435.6 2.3 438.3 1.8 441.1 1.3 457.8-1.9 474 1.5 489.8 6.3 533.6 19.6 577.2 33.6 620.9 47.6 631.7 51.1 642.4 55.2 652.8 59.7 667.6 66.1 681.2 74.3 689 89.3 703.3 117 717.5 144.7 731.8 172.4 741.4 190.9 750.9 209.4 760.5 227.9 788.2 281.7 815.8 335.5 843.3 389.4 862.4 427 855.4 470.1 826.9 500.2ZM654.6 217.7C651.2 220.7 647.1 223.1 643.1 225.3 641.5 226.1 639.7 227 638 227.9 598.8 248.5 559.6 268.8 520.3 289.2 478.7 310.8 437.2 332.5 395.5 354 380.4 361.8 364.4 357.8 356.6 344.8 347.9 330.3 352.6 313.4 368.1 304.2 370.9 302.5 374 301 377 299.5 378 299 379.1 298.5 380 297.9L380.1 297.9C425 274.5 469.9 251.2 514.8 227.9 547 211 579.3 194.3 611.6 177.5 613.8 176.3 615.9 175.2 618.2 174.1 619.4 173.4 620.5 172.9 621.6 172.4 631.7 168 640.5 168 648.4 172.4 650.5 173.5 652.5 175 654.5 176.7 666.2 187.3 666.4 207.3 654.6 217.7ZM713 401.9C712.6 402.2 712 402.5 711.5 402.8 641.9 439 572.4 475.3 502.8 511.4 492.7 516.6 482.9 516.6 473.8 508.8 467.2 503 464.8 493.9 466.6 485.7 467.8 480.7 470.5 476.1 474.8 472.8 477.6 470.6 480.9 468.8 484.1 467.1 518.1 449.4 552.1 431.7 586 414 620.3 396.1 654.7 378.3 689 360.3 696.3 356.5 703.6 354.8 710.7 357.3 712.6 358 714.6 359 716.5 360.4 731.8 371.4 730 391.7 713 401.9ZM656.3 329.7C631.2 342.8 606.1 355.8 581.1 368.9 536.8 391.9 492.6 415.1 448.3 438.1 432.5 446.3 415.4 442.5 407.1 429.2 397.3 413.5 402.4 395 419.7 385.7 441 374.3 462.5 363.3 484 352.1 497.9 344.8 512 337.6 526 330.2 560.7 312.1 595.4 293.8 630.3 276 651 265.4 672.9 277.2 674.7 299.7 675.9 313.9 668.3 323.4 656.3 329.7ZM248.6 530.1C248.6 530.1 251.4 529.8 256.6 529.2 261.9 528.7 269.6 527.7 279.4 526.9 289.2 526.1 301.1 524.9 314.8 524 328.5 523 343.9 521.8 360.7 520.9 394.3 518.9 433.6 517.1 475.7 515.9 486.2 515.6 496.9 515.4 507.7 515.2 518.5 515 529.5 514.7 540.5 514.6 562.6 514.3 585 514.2 607.5 514.1 629.9 514.2 652.3 514.2 674.4 514.6 685.4 514.7 696.4 514.9 707.2 515.2 718.1 515.4 728.7 515.7 739.3 515.9 781.3 517.1 820.6 518.8 854.2 520.8 871 521.8 886.5 522.9 900.2 523.9 913.8 524.9 925.7 526 935.6 526.9 945.4 527.7 953.1 528.6 958.3 529.1 963.6 529.7 966.4 530.1 966.4 530.1S963.6 530.4 958.3 531C953.1 531.5 945.4 532.4 935.6 533.2 925.7 534.1 913.8 535.2 900.2 536.2 886.5 537.2 871.1 538.4 854.2 539.3 820.6 541.3 781.3 543 739.3 544.2 728.7 544.5 718 544.7 707.2 545 696.4 545.2 685.4 545.4 674.4 545.5 652.3 545.9 629.9 545.9 607.5 546 585 545.9 562.6 545.9 540.5 545.5 529.5 545.4 518.5 545.2 507.7 544.9 496.9 544.7 486.2 544.5 475.7 544.2 433.6 543 394.3 541.3 360.7 539.2 343.9 538.3 328.4 537.1 314.8 536.1 301.1 535.2 289.2 534.1 279.4 533.2 269.6 532.4 261.9 531.4 256.6 530.9 251.3 530.4 248.6 530.1 248.6 530.1",
        "width": 4177
      },
      "search": [
        "comprobantes"
      ]
    },
    {
      "uid": "590e6b96099cad6c09faf83c7fab1bc3",
      "css": "alcohol",
      "code": 59396,
      "src": "custom_icons",
      "selected": true,
      "svg": {
        "path": "M1889.7 388.8L1906.5 346.4C1915.1 352.7 1925.8 357.9 1938.6 362.1 1951.4 366.4 1962.9 368.5 1973 368.5 1991 368.5 2005.4 363.6 2016.3 353.8S2032.6 331.4 2032.6 316.3C2032.6 304.9 2029.6 294.3 2023.5 284.6S2002.2 264.2 1977.8 252.7L1950.7 240.1C1927.7 229.3 1911.6 216.6 1902.5 201.9 1893.3 187.1 1888.7 169.4 1888.7 148.7 1888.7 123.5 1897.7 102.7 1915.4 86.1 1933.3 69.6 1956.1 61.3 1984 61.3 2021.3 61.3 2047.2 67.3 2061.8 79.4L2048.2 119.5C2042.1 115 2032.7 110.7 2020.1 106.6S1995.9 100.3 1985.2 100.3C1969.5 100.3 1957.2 104.8 1948.2 113.7 1939.2 122.6 1934.7 134 1934.7 148 1934.7 156.6 1936.4 164.4 1939.6 171.5 1942.8 178.6 1947.3 184.5 1953.1 189.2 1958.8 194 1970.6 200.6 1988.4 209.2L2016 222.4C2039 233.2 2055.2 246.3 2064.4 261.4S2078.3 295.7 2078.3 319C2078.3 344.3 2068.2 365.8 2047.9 383.5S2000.3 410 1966.3 410C1936.4 409.9 1910.8 402.9 1889.7 388.8ZM2135.1 404.2V194.5H2101.3V157.7H2178.9V404.2H2135.1ZM2159.1 64.5C2166.6 64.5 2173 67.1 2178.3 72.4S2186.3 84 2186.3 91.4C2186.3 98.9 2183.6 105.3 2178.3 110.6S2166.6 118.5 2159.1 118.5C2151.7 118.5 2145.4 115.9 2140.1 110.6S2132.2 98.9 2132.2 91.4 2134.8 77.5 2140 72.3C2145.2 67.1 2151.6 64.5 2159.1 64.5ZM2218.2 389.4L2233.6 348C2257.9 364 2277.6 371.9 2292.5 371.9 2319.5 371.9 2333 360.6 2333 337.9 2333 321.6 2319.9 307.7 2293.8 296 2273.7 286.8 2260.2 279.8 2253.2 275.1 2246.2 270.3 2240.2 264.9 2235 258.8 2229.9 252.8 2226.1 246.3 2223.5 239.5 2221 232.7 2219.7 225.3 2219.7 217.5 2219.7 197.2 2227.1 181.4 2241.9 170.1 2256.6 158.7 2275.8 153.1 2299.6 153.1 2317.6 153.1 2340.2 158.7 2367.5 170.1L2355.1 210.6C2337.8 196.8 2320.3 189.9 2302.8 189.9 2292.4 189.9 2283.6 192.3 2276.5 197.3 2269.3 202.2 2265.8 208.4 2265.8 215.9 2265.8 231.7 2274.7 243.7 2292.7 251.8L2324 266.1C2343.2 274.8 2357.1 284.8 2365.9 296 2374.6 307.2 2379 321.2 2379 338.1 2379 360.2 2371.2 377.5 2355.7 390 2340.3 402.5 2318.8 408.8 2291.3 408.8 2265.4 408.8 2241 402.3 2218.2 389.4ZM2426.6 192.2H2398V157.7H2426.6V106.1L2470.3 89.3V157.7H2538V192.2H2470.3V314.6C2470.3 335.3 2473.8 350.1 2480.8 358.8 2487.8 367.6 2499 371.9 2514.5 371.9 2525.7 371.9 2537.3 369.1 2549.3 363.4L2555.7 401.9C2537.7 406.4 2517.7 408.8 2496.1 408.8 2476.6 408.8 2460.2 401.5 2446.7 387S2426.6 354.2 2426.6 332.1V192.2ZM2791.2 285.2H2613.5C2613.5 314 2621.5 336.2 2637.3 351.7 2651.2 365.2 2669.2 371.9 2691.1 371.9 2716.1 371.9 2737 364.7 2753.7 350.1L2772.1 381.6C2765.4 388.3 2755 394.2 2741.1 399.1 2723.6 405.6 2704.1 408.8 2682.6 408.8 2651.6 408.8 2625.3 398.3 2603.7 377.2 2579.6 354.1 2567.6 323 2567.6 283.8 2567.6 243.2 2579.9 210.6 2604.6 186 2626.7 164 2652.8 153.1 2683.1 153.1 2718.2 153.1 2745.7 163 2765.7 182.8 2785.1 201.8 2794.7 227 2794.7 258.5 2794.7 268.2 2793.5 277 2791.2 285.2ZM2685.1 189.9C2665.7 189.9 2649.3 196.2 2636.1 208.8 2623.5 220.7 2616.4 235.6 2614.7 253.4H2751.2C2751.2 235.8 2745.7 221 2734.6 209.2 2722.5 196.4 2706 189.9 2685.1 189.9ZM3112 404.2V248.1C3112 209.3 3095.2 189.9 3061.6 189.9 3051 189.9 3041.1 193.1 3031.9 199.6 3022.7 206.1 3016.4 213.6 3013 221.9V404.1H2969.3V229C2969.3 216.9 2964.7 207.3 2955.6 200.4S2934.4 189.9 2919.3 189.9C2910.6 189.9 2901.3 193.3 2891.4 200 2881.5 206.8 2874.5 214.2 2870.3 222.3V404.2H2826.6V157.7H2855.1L2869.6 186.2C2886.5 164.1 2907.6 153.1 2932.9 153.1 2968.2 153.1 2992.9 164 3007 186 3011.9 176.6 3021 168.8 3034.4 162.5 3047.8 156.2 3061.5 153.1 3075.5 153.1 3101 153.1 3120.8 160.6 3134.7 175.7S3155.7 212 3155.7 239.4V404.1H3112ZM3343 375.9C3325.5 397.8 3298.7 408.8 3262.7 408.8 3243.3 408.8 3226.5 401.7 3212.4 387.7S3191.1 356.2 3191.1 335.3C3191.1 310.3 3202 289.2 3223.9 272 3245.7 254.7 3273.6 246.1 3307.6 246.1 3316.8 246.1 3327.2 248.1 3338.8 252 3338.8 212.1 3321 192.2 3285.4 192.2 3258.1 192.2 3237.1 199.6 3222.4 214.3L3204 177.7C3212.3 171 3223.7 165.2 3238.4 160.4 3253 155.5 3267 153.1 3280.4 153.1 3316.1 153.1 3342.1 161.2 3358.3 177.5S3382.6 219.6 3382.6 255V343.4C3382.6 365.1 3389 379.5 3401.9 386.7V408.6C3384.1 408.6 3370.8 406.1 3362 401 3353.1 395.9 3346.8 387.5 3343 375.9ZM3338.8 283.1C3325 280 3315.3 278.5 3309.8 278.5 3287.7 278.5 3269.7 284.2 3255.7 295.5 3241.8 306.9 3234.8 320.3 3234.8 335.8 3234.8 361.4 3249.9 374.2 3280.1 374.2 3302.2 374.2 3321.8 363.7 3338.8 342.7V283.1ZM3721.3 403.9V385.8C3706.2 400.9 3684.1 408.5 3655.1 408.5 3624.2 408.5 3599.2 397.5 3580 375.4S3551.3 323.8 3551.3 287C3551.3 250 3562.3 218.5 3584.4 192.3S3632.8 153.1 3663.3 153.1C3688.8 153.1 3708.1 159 3721.3 171V56.7H3765.1V404H3721.3ZM3721.3 214.8C3710.3 198.2 3695.2 189.9 3676 189.9 3652.5 189.9 3633.6 198.6 3619.1 216.2 3604.6 233.6 3597.3 255.9 3597.3 282.9 3597.3 342.3 3624.3 371.9 3678.4 371.9 3685.2 371.9 3693.5 369.8 3703.2 365.4 3712.9 361 3718.9 356.4 3721.4 351.5V214.8ZM4021.1 285.2H3843.4C3843.4 314 3851.4 336.2 3867.2 351.7 3881.1 365.2 3899.1 371.9 3921 371.9 3946 371.9 3966.9 364.7 3983.6 350.1L4002 381.6C3995.3 388.3 3984.9 394.2 3971 399.1 3953.5 405.6 3934 408.8 3912.5 408.8 3881.5 408.8 3855.2 398.3 3833.6 377.2 3809.5 354.1 3797.5 323 3797.5 283.8 3797.5 243.2 3809.8 210.6 3834.5 186 3856.6 164 3882.7 153.1 3913 153.1 3948.1 153.1 3975.6 163 3995.6 182.8 4015 201.8 4024.6 227 4024.6 258.5 4024.6 268.2 4023.4 277 4021.1 285.2ZM3915 189.9C3895.6 189.9 3879.2 196.2 3866 208.8 3853.4 220.7 3846.3 235.6 3844.6 253.4H3981.1C3981.1 235.8 3975.6 221 3964.5 209.2 3952.4 196.4 3935.9 189.9 3915 189.9ZM1427.9 881H1416.4L1310.7 629.3H1358.6L1423.7 801.9 1490.2 629.3H1536L1427.9 881ZM1763.3 757.4H1585.6C1585.6 786.3 1593.6 808.5 1609.4 824 1623.3 837.5 1641.3 844.2 1663.2 844.2 1688.2 844.2 1709.1 836.9 1725.8 822.3L1744.2 853.9C1737.5 860.6 1727.1 866.4 1713.2 871.4 1695.7 877.8 1676.2 881 1654.7 881 1623.7 881 1597.4 870.5 1575.8 849.5 1551.7 826.3 1539.7 795.2 1539.7 756.1 1539.7 715.4 1552 682.8 1576.7 658.3 1598.8 636.3 1624.9 625.4 1655.2 625.4 1690.3 625.4 1717.8 635.2 1737.8 655 1757.2 674 1766.8 699.3 1766.8 730.7 1766.8 740.4 1765.6 749.3 1763.3 757.4ZM1657.2 662.2C1637.8 662.2 1621.4 668.5 1608.2 681 1595.6 693 1588.5 707.9 1586.8 725.7H1723.2C1723.2 708 1717.7 693.3 1706.7 681.5 1694.6 668.6 1678.1 662.2 1657.2 662.2ZM1950.3 876.4V733.1C1950.3 706.8 1946.4 688.4 1938.5 677.9 1930.6 667.4 1917.3 662.2 1898.8 662.2 1888.8 662.2 1878.4 665.1 1867.5 671.1 1856.6 677.1 1848.2 684.5 1842.4 693.2V876.5H1798.6V630H1828.6L1842.3 661.7C1856.8 637.5 1880.3 625.4 1913 625.4 1967 625.4 1994 658.2 1994 723.9V876.5H1950.3ZM2057.7 664.4H2029.2V629.9H2057.7V578.4L2101.4 561.6V629.9H2169.1V664.4H2101.4V786.9C2101.4 807.6 2105 822.3 2111.9 831 2118.9 839.8 2130.1 844.2 2145.7 844.2 2156.9 844.2 2168.5 841.3 2180.4 835.7L2186.9 874.1C2168.8 878.7 2148.9 881 2127.3 881 2107.8 881 2091.3 873.8 2077.9 859.3S2057.8 826.5 2057.8 804.4V664.4ZM2354 848.1C2336.5 870.1 2309.8 881 2273.7 881 2254.3 881 2237.6 874 2223.4 860 2209.2 846 2202.1 828.5 2202.1 807.6 2202.1 782.6 2213 761.5 2234.9 744.2 2256.8 726.9 2284.7 718.3 2318.6 718.3 2327.8 718.3 2338.2 720.3 2349.9 724.3 2349.9 684.4 2332.1 664.5 2296.5 664.5 2269.2 664.5 2248.2 671.8 2233.4 686.6L2215 650C2223.3 643.2 2234.8 637.4 2249.4 632.6 2264.1 627.7 2278.1 625.4 2291.4 625.4 2327.2 625.4 2353.2 633.5 2369.4 649.7S2393.6 691.9 2393.6 727.3V815.7C2393.6 837.3 2400.1 851.7 2413 858.9V880.8C2395.2 880.8 2381.9 878.3 2373.1 873.2 2364.2 868.1 2357.8 859.7 2354 848.1ZM2349.9 755.4C2336.1 752.3 2326.4 750.7 2320.9 750.7 2298.8 750.7 2280.8 756.4 2266.8 767.8 2252.9 779.1 2245.9 792.5 2245.9 808.1 2245.9 833.7 2261 846.5 2291.2 846.5 2313.3 846.5 2332.9 836 2349.9 815V755.4ZM2732.4 876.2V858C2717.2 873.2 2695.1 880.8 2666.1 880.8 2635.3 880.8 2610.3 869.8 2591.1 847.7S2562.3 796.1 2562.3 759.3C2562.3 722.3 2573.4 690.7 2595.5 664.5S2643.9 625.3 2674.4 625.3C2699.9 625.3 2719.2 631.3 2732.4 643.3V528.9H2776.2V876.2H2732.4ZM2732.4 687C2721.4 670.4 2706.3 662.1 2687.1 662.1 2663.6 662.1 2644.7 670.9 2630.2 688.4 2615.7 705.8 2608.4 728.1 2608.4 755.1 2608.4 814.5 2635.4 844.2 2689.4 844.2 2696.3 844.2 2704.6 842 2714.3 837.6 2723.9 833.3 2730 828.6 2732.5 823.7V687ZM3032.3 757.4H2854.6C2854.6 786.3 2862.5 808.5 2878.3 824 2892.2 837.5 2910.2 844.2 2932.2 844.2 2957.1 844.2 2978 836.9 2994.7 822.3L3013.1 853.9C3006.4 860.6 2996 866.4 2982.1 871.4 2964.6 877.8 2945.1 881 2923.6 881 2892.6 881 2866.3 870.5 2844.7 849.5 2820.6 826.3 2808.6 795.2 2808.6 756.1 2808.6 715.4 2820.9 682.8 2845.6 658.3 2867.7 636.3 2893.9 625.4 2924.1 625.4 2959.2 625.4 2986.7 635.2 3006.7 655 3026.1 674 3035.7 699.3 3035.7 730.7 3035.7 740.4 3034.5 749.3 3032.3 757.4ZM2926.1 662.2C2906.7 662.2 2890.3 668.5 2877.1 681 2864.5 693 2857.4 707.9 2855.7 725.7H2992.2C2992.2 708 2986.6 693.3 2975.6 681.5 2963.5 668.6 2947 662.2 2926.1 662.2ZM3334.7 848.1C3317.2 870.1 3290.4 881 3254.3 881 3235 881 3218.2 874 3204 860S3182.8 828.5 3182.8 807.6C3182.8 782.6 3193.7 761.5 3215.6 744.2 3237.4 726.9 3265.3 718.3 3299.2 718.3 3308.4 718.3 3318.8 720.3 3330.5 724.3 3330.5 684.4 3312.7 664.5 3277.1 664.5 3249.8 664.5 3228.8 671.8 3214 686.6L3195.6 650C3203.9 643.2 3215.4 637.4 3230.1 632.6 3244.7 627.7 3258.7 625.4 3272.1 625.4 3307.8 625.4 3333.8 633.5 3350 649.7S3374.3 691.9 3374.3 727.3V815.7C3374.3 837.3 3380.7 851.7 3393.6 858.9V880.8C3375.8 880.8 3362.5 878.3 3353.7 873.2 3344.8 868.1 3338.5 859.7 3334.7 848.1ZM3330.5 755.4C3316.7 752.3 3307 750.7 3301.5 750.7 3279.4 750.7 3261.4 756.4 3247.4 767.8 3233.5 779.1 3226.5 792.5 3226.5 808.1 3226.5 833.7 3241.6 846.5 3271.8 846.5 3293.9 846.5 3313.5 836 3330.5 815V755.4ZM3432.4 806.7V528.9H3476.1V799.3C3476.1 812.5 3479.9 822.9 3487.5 830.5 3495.1 838.1 3505 841.9 3517.3 841.9V881C3460.7 881 3432.4 856.3 3432.4 806.7ZM3739.8 649.9L3718.1 680.8C3713.7 676.4 3705.8 672.1 3694.5 668.1 3683.3 664.2 3672.2 662.2 3661.3 662.2 3637.5 662.2 3618.6 670.5 3604.6 687.1S3583.7 726.6 3583.7 755.6C3583.7 784.4 3590.8 806.4 3605.1 821.5 3619.4 836.6 3639.2 844.2 3664.5 844.2 3684.1 844.2 3703.9 836.6 3723.9 821.4L3741.1 858.2C3717.7 873.4 3688.6 881 3653.9 881 3620.3 881 3592.6 869.7 3570.6 847.2 3548.7 824.6 3537.7 794.1 3537.7 755.6 3537.7 716.3 3549.1 684.8 3571.9 661 3594.7 637.2 3625.8 625.4 3665.4 625.4 3678.2 625.4 3692 628 3706.8 633.4 3721.7 638.8 3732.7 644.3 3739.8 649.9ZM3756.9 752.6C3756.9 714.5 3767.2 683.8 3787.7 660.4 3808.2 637 3835.1 625.3 3868.6 625.3 3903.8 625.3 3931.3 636.5 3950.8 659 3970.2 681.5 3980 712.7 3980 752.6 3980 792.3 3970 823.7 3950.1 846.6 3930.1 869.5 3903 881 3868.6 881 3833.5 881 3806.1 869.4 3786.4 846.3 3766.8 823.1 3756.9 791.9 3756.9 752.6ZM3803 752.6C3803 814.4 3824.8 845.4 3868.5 845.4 3889 845.4 3904.9 837.1 3916.5 820.5 3928.1 803.9 3933.9 781.3 3933.9 752.6 3933.9 691.5 3912.1 661 3868.5 661 3848.6 661 3832.7 669.1 3820.8 685.4 3808.9 701.6 3803 724.1 3803 752.6ZM4163.7 876.4V721.6C4163.7 703.1 4159.2 688.6 4150.1 678 4141.1 667.4 4128.3 662.2 4111.9 662.2 4101.3 662.2 4090.7 665.3 4080 671.5S4061.2 685 4055.5 693.2V876.5H4011.8V528.9H4055.5V657.1C4061.4 648 4070.8 640.5 4083.7 634.4 4096.7 628.3 4110.1 625.3 4123.9 625.3 4150 625.3 4170.4 633.9 4185.2 651.1S4207.4 691.8 4207.4 721.5V876.4H4163.7ZM4239.1 752.6C4239.1 714.5 4249.4 683.8 4269.9 660.4 4290.4 637 4317.3 625.3 4350.8 625.3 4386 625.3 4413.5 636.5 4433 659 4452.4 681.5 4462.2 712.7 4462.2 752.6 4462.2 792.3 4452.2 823.7 4432.3 846.6 4412.3 869.5 4385.2 881 4350.8 881 4315.7 881 4288.3 869.4 4268.6 846.3 4249 823.1 4239.1 791.9 4239.1 752.6ZM4285.2 752.6C4285.2 814.4 4307 845.4 4350.7 845.4 4371.2 845.4 4387.1 837.1 4398.7 820.5 4410.3 803.9 4416.1 781.3 4416.1 752.6 4416.1 691.5 4394.3 661 4350.7 661 4330.8 661 4314.9 669.1 4303 685.4 4291.1 701.6 4285.2 724.1 4285.2 752.6ZM4497.5 806.7V528.9H4541.2V799.3C4541.2 812.5 4545 822.9 4552.6 830.5 4560.2 838.1 4570.1 841.9 4582.4 841.9V881C4525.7 881 4497.5 856.3 4497.5 806.7ZM565.2 936.4C403 936.4 240.8 936.5 78.6 936.4 23.2 936.3 0.1 913.2 0.1 857.8 0 618.8 0 379.7 0.1 140.6 0.1 87.3 24 63.6 77.3 63.6 403.6 63.5 729.9 63.5 1056.2 63.6 1109.5 63.6 1133.3 87.3 1133.4 140.7 1133.5 380.7 1133.5 620.8 1133.4 860.8 1133.3 912.3 1109.1 936.3 1057.5 936.3 893.4 936.5 729.3 936.4 565.2 936.4ZM568.1 106.5C406.8 106.5 245.5 106.5 84.2 106.6 46.2 106.6 41.8 110.9 41.7 148.4 41.7 382.8 41.7 617.2 41.7 851.7 41.7 889 46.3 893.4 84.3 893.4 405.9 893.5 727.6 893.5 1049.2 893.4 1087.3 893.4 1091.7 889.1 1091.7 851.6 1091.7 617.2 1091.7 382.7 1091.7 148.3 1091.7 110.9 1087.3 106.6 1049.1 106.6 888.8 106.5 728.4 106.5 568.1 106.5ZM219.8 152.5C249.4 152.5 275.4 152.5 303.2 152.5 303.2 383.7 303.2 613.8 303.2 846.3 276 846.3 248.7 846.3 219.8 846.3 219.8 615 219.8 385.1 219.8 152.5ZM481.8 152.7C509.6 152.7 535.5 152.7 563.5 152.7 563.5 383.8 563.5 613.7 563.5 846 537.2 846 510.7 846 481.8 846 481.8 616.4 481.8 385.8 481.8 152.7ZM1001.1 847.1C972.3 847.1 946.4 847.1 918.6 847.1 918.6 615.7 918.6 385.8 918.6 153.6 945.8 153.6 972.4 153.6 1001.1 153.6 1001.1 383.8 1001.1 614.4 1001.1 847.1ZM132.4 153.3C146.9 153.3 158.6 153.3 171.8 153.3 171.8 385.2 171.8 615.3 171.8 847 158.2 847 146.4 847 132.4 847 132.4 616.1 132.4 385.4 132.4 153.3ZM652.6 846.9C638.7 846.9 626.1 846.9 611.9 846.9 611.9 615.1 611.9 384.9 611.9 153.1 626.1 153.1 638.7 153.1 652.6 153.1 652.6 384.9 652.6 615.1 652.6 846.9ZM871.4 846.8C857.4 846.8 844.6 846.8 830.2 846.8 830.2 616.3 830.2 386.2 830.2 153.7 843.5 153.7 856.7 153.7 871.4 153.7 871.4 384.9 871.4 615 871.4 846.8ZM432.6 847.2C419 847.2 408 847.2 394.8 847.2 394.8 616 394.8 385.9 394.8 153.7 406.8 153.7 418.5 153.7 432.6 153.7 432.6 383.7 432.6 614.5 432.6 847.2ZM700.9 152.7C714.3 152.7 725.3 152.7 738.6 152.7 738.6 383.9 738.6 613.9 738.6 846.2 726.7 846.2 715.1 846.2 700.9 846.2 700.9 616.3 700.9 385.6 700.9 152.7Z",
        "width": 4602
      },
      "search": [
        "alcohol"
      ]
    }
  ]
}