{
 "MDO.TITULO": "MODULO EXTERNO",
 "SAL.SALUDO.TITULO": "Saludar!",
 "SAL.SALUDO.SUB_TITULO": "Ejemplo saludar!",
 "SAL.SALUDO.INSTRUCCIONES": "Haga clic en el boton saludar para llamar al sericio Rest saludar",
 "SAL.SALUDO.BOTON.SALUDAR": "Saludar",
 "SAL.SALUDO.BOTON.LIMPIAR": "Limpiar",
 "SAL.SALUDO.MENSAJE.EXITO": "Saludo con exito!",
 "SAL.SALUDO.MENSAJE.ERROR": "Error!"

}