[
    {
        "name": "sri-web.home",
        "url": "/home",
        "controller": "InicioControlador",
        "templateUrl": "app/plantilla/paginas/cuenta/configuracion-cuenta.html",
        "resolve": {
            "name": "sbAdminApp",
            "files": [
                "app/plantilla/js/controladores/InicioControlador.js"
            ]

        }
    },
    {
        "name": "sri-web.table",
        "templateUrl": "app/modulo-ejemplo/mdTable/tabla.html",
        "url": "/table"

    },
    {
        "name": "sri-web.ceProduccion",
        "templateUrl": "https://www.google.com.ec",
        "url": "/ce-produccion"

    },
    {
        "name": "sri-web.cePruebas",
        "templateUrl": "app/modulo-ejemplo/mdComprobantes/pruebas.html",
        "url": "/ce-pruebas"

    },
    {
        "name": "sri-web.matriculacion",
        "templateUrl": "app/modulo-ejemplo/module1/paginas/module1.html",
        "url": "/table"

    },
    {
        "name": "sri-web.module1",
        "templateUrl": "app/modulo-ejemplo/module1/paginas/module1.html",
        "url": "/module1",
        "resolve": {
            "files": [
                "app/modulo-ejemplo/module1/js/kendoAng.js",
                "app/modulo-ejemplo/module1/css/styles.css",
                "app/modulo-ejemplo/module1/css/kendoangular.css",
                "app/modulo-ejemplo/module1/js/ngGrid.js"
            ]

        }
    },
    {
        "name": "sri-web.configuracion",
        "templateUrl": "app/plantilla/paginas/cuenta/configuracion-cuenta.html",
        "url": "/configuracion"

    },
    {
        "name": "sri-web.comprobantes",
        "templateUrl": "app/modulo-ejemplo/mdComprobantes/comprobantes.html",
        "url": "/comprobantes"

    },
    {
        "name": "sri-web.externo",
        "templateUrl": "http://localhost:8080/sri-web-module/index.html",
        "url": "/externo",
        "controller": "ControladorModulo",
        "resolve": {
            "files": [
                "http://localhost:8080/sri-web-module/recursos/js/module.js"
            ]

        }
    },
    {
        "name": "sri-web.form",
        "templateUrl": "app/modulo-ejemplo/forms/paginas/form.html",
        "url": "/form"
        ,
        "resolve": {
            "files": [
                "app/modulo-ejemplo/forms/recursos/js/mdForm.js",
                "app/modulo-ejemplo/forms/recursos/js/sriApiRSFct.js"
            ]
        }
    },
    {
        "name": "sri-web.no-encontrado",
        "templateUrl": "app/plantilla/paginas/404.html",
        "url": "/no-encontrado"

    }
]